<?xml version="1.0" encoding="UTF-8" standalone="no"?>
<!-- Created with Inkscape (http://www.inkscape.org/) -->

<svg
   xmlns:osb="http://www.openswatchbook.org/uri/2009/osb"
   xmlns:dc="http://purl.org/dc/elements/1.1/"
   xmlns:cc="http://creativecommons.org/ns#"
   xmlns:rdf="http://www.w3.org/1999/02/22-rdf-syntax-ns#"
   xmlns:svg="http://www.w3.org/2000/svg"
   xmlns="http://www.w3.org/2000/svg"
   xmlns:sodipodi="http://sodipodi.sourceforge.net/DTD/sodipodi-0.dtd"
   xmlns:inkscape="http://www.inkscape.org/namespaces/inkscape"
   width="1216"
   height="1216"
   viewBox="0 0 1216 1216"
   id="svg2"
   version="1.1"
   inkscape:version="0.91 r13725"
   sodipodi:docname="icons_256x256.svg"
   inkscape:export-filename="/run/media/iko/home/Downloads/preview.png"
   inkscape:export-xdpi="37.009998"
   inkscape:export-ydpi="37.009998">
  <defs
     id="defs4">
    <linearGradient
       id="linearGradient4564"
       osb:paint="solid">
      <stop
         style="stop-color:#2392ac;stop-opacity:1;"
         offset="0"
         id="stop4566" />
    </linearGradient>
  </defs>
  <sodipodi:namedview
     id="base"
     pagecolor="#ffffff"
     bordercolor="#666666"
     borderopacity="1.0"
     inkscape:pageopacity="0"
     inkscape:pageshadow="2"
     inkscape:zoom="0.83445578"
     inkscape:cx="247.13749"
     inkscape:cy="953.07463"
     inkscape:document-units="px"
     inkscape:current-layer="layer18"
     showgrid="true"
     units="px"
     inkscape:showpageshadow="false"
     borderlayer="true"
     inkscape:window-width="1920"
     inkscape:window-height="1030"
     inkscape:window-x="0"
     inkscape:window-y="26"
     inkscape:window-maximized="1"
     showguides="true"
     inkscape:guide-bbox="true"
     inkscape:snap-bbox="true"
     inkscape:bbox-nodes="true"
     inkscape:bbox-paths="true"
     inkscape:snap-bbox-edge-midpoints="true"
     inkscape:snap-nodes="true"
     inkscape:snap-others="true"
     inkscape:snap-bbox-midpoints="true"
     inkscape:snap-global="true"
     inkscape:object-paths="true"
     inkscape:snap-object-midpoints="true"
     inkscape:snap-intersection-paths="true"
     inkscape:snap-grids="true"
     inkscape:object-nodes="true"
     inkscape:snap-smooth-nodes="true"
     inkscape:snap-midpoints="true"
     inkscape:snap-to-guides="false"
     inkscape:snap-center="true"
     inkscape:snap-page="false">
    <inkscape:grid
       type="xygrid"
       id="grid4133"
       spacingx="16"
       spacingy="16"
       empspacing="4"
       snapvisiblegridlinesonly="true" />
    <sodipodi:guide
       position="-47.999999,319.99999"
       orientation="0,1"
       id="guide4134" />
    <sodipodi:guide
       position="256,-47.999999"
       orientation="1,0"
       id="guide4136" />
    <sodipodi:guide
       position="319.99999,-47.999999"
       orientation="1,0"
       id="guide4138" />
    <sodipodi:guide
       position="639.99999,-47.999999"
       orientation="1,0"
       id="guide4140" />
    <sodipodi:guide
       position="-47.999999,256"
       orientation="0,1"
       id="guide4871" />
    <sodipodi:guide
       position="575.99999,-47.999999"
       orientation="1,0"
       id="guide4873" />
    <sodipodi:guide
       position="895.99998,-47.999999"
       orientation="1,0"
       id="guide4875" />
    <sodipodi:guide
       position="959.99998,-47.999999"
       orientation="1,0"
       id="guide4877" />
    <sodipodi:guide
       position="-48,576"
       orientation="0,1"
       id="guide7400" />
    <sodipodi:guide
       position="-48,640"
       orientation="0,1"
       id="guide7402" />
    <sodipodi:guide
       position="-48,896"
       orientation="0,1"
       id="guide7404" />
    <sodipodi:guide
       position="-48,960"
       orientation="0,1"
       id="guide7406" />
  </sodipodi:namedview>
  <metadata
     id="metadata7">
    <rdf:RDF>
      <cc:Work
         rdf:about="">
        <dc:format>image/svg+xml</dc:format>
        <dc:type
           rdf:resource="http://purl.org/dc/dcmitype/StillImage" />
        <dc:title></dc:title>
      </cc:Work>
    </rdf:RDF>
  </metadata>
  <g
     inkscape:groupmode="layer"
     id="layer9"
     inkscape:label="_colours"
     transform="translate(0,640)"
     style="display:inline">
    <path
       style="display:inline;opacity:1;fill:#43488a;fill-opacity:1;fill-rule:nonzero;stroke:none;stroke-width:5;stroke-linecap:round;stroke-linejoin:round;stroke-miterlimit:4;stroke-dasharray:none;stroke-opacity:1"
       d="m -256,-544 32,0 0,32 -32,0 z"
       id="rect4918-6"
       inkscape:connector-curvature="0" />
    <path
       inkscape:connector-curvature="0"
       id="path5222-3"
       d="m -240.0784,-585.9867 -15.9215,9.09081 4.4156,0.009 0,16.88793 23.1688,0 0,-16.84429 4.4156,0.009 -16.0785,-9.15191 z"
       style="display:inline;fill:#43488a;fill-opacity:1;stroke:none" />
    <path
       style="display:inline;opacity:1;fill:#7f82ae;fill-opacity:1;fill-rule:nonzero;stroke:none;stroke-width:5;stroke-linecap:round;stroke-linejoin:round;stroke-miterlimit:4;stroke-dasharray:none;stroke-opacity:1"
       d="m -192,-544 32,0 0,32 -32,0 z"
       id="rect4918-6-2"
       inkscape:connector-curvature="0" />
    <path
       inkscape:connector-curvature="0"
       id="path4472"
       d="m -128,-544 32,0 0,32 -32,0 z"
       style="display:inline;opacity:1;fill:#d6d8ec;fill-opacity:1;fill-rule:nonzero;stroke:none;stroke-width:5;stroke-linecap:round;stroke-linejoin:round;stroke-miterlimit:4;stroke-dasharray:none;stroke-opacity:1" />
    <path
       inkscape:connector-curvature="0"
       id="path4489"
       d="m -224,-544 32,0 0,32 -32,0 z"
       style="display:inline;opacity:1;fill:#5c6099;fill-opacity:1;fill-rule:nonzero;stroke:none;stroke-width:5;stroke-linecap:round;stroke-linejoin:round;stroke-miterlimit:4;stroke-dasharray:none;stroke-opacity:1" />
    <path
       style="display:inline;opacity:1;fill:#afb0d0;fill-opacity:1;fill-rule:nonzero;stroke:none;stroke-width:5;stroke-linecap:round;stroke-linejoin:round;stroke-miterlimit:4;stroke-dasharray:none;stroke-opacity:1"
       d="m -160,-544 32,0 0,32 -32,0 z"
       id="path4506"
       inkscape:connector-curvature="0" />
    <path
       inkscape:connector-curvature="0"
       id="path4508"
       d="m -96,-544 32,0 0,32 -32,0 z"
       style="display:inline;opacity:1;fill:#e7e8f5;fill-opacity:1;fill-rule:nonzero;stroke:none;stroke-width:5;stroke-linecap:round;stroke-linejoin:round;stroke-miterlimit:4;stroke-dasharray:none;stroke-opacity:1" />
  </g>
  <g
     inkscape:groupmode="layer"
     id="layer18"
     inkscape:label="extras"
     style="display:none">
    <g
       inkscape:groupmode="layer"
       id="layer20"
       inkscape:label="chat">
      <g
         style="display:inline"
         id="g4537"
         transform="matrix(9.5652089,0,0,9.5652089,-3105.7302,-8086.3456)">
        <path
           inkscape:connector-curvature="0"
           style="opacity:1;fill:#43488a;fill-opacity:1;fill-rule:nonzero;stroke:none;stroke-width:0;stroke-linecap:round;stroke-linejoin:round;stroke-miterlimit:4;stroke-dasharray:none;stroke-opacity:1"
           d="m 384.9085,858.77325 a 13.381828,10.864455 0 0 1 -13.38183,10.86446 13.381828,10.864455 0 0 1 -13.38183,-10.86446 13.381828,10.864455 0 0 1 13.38183,-10.86445 13.381828,10.864455 0 0 1 13.38183,10.86445 z"
           id="path6719" />
        <path
           inkscape:connector-curvature="0"
           id="path6721"
           d="m 363.71137,865.19597 c 0.92938,3.61956 -2.78807,5.64226 -2.78807,5.64226 0,0 -3.51094,-1.27749 0,0 3.51091,1.27748 8.46751,-2.7679 8.46751,-2.7679 z"
           style="fill:#43488a;fill-opacity:1;fill-rule:evenodd;stroke:none;stroke-width:1px;stroke-linecap:butt;stroke-linejoin:miter;stroke-opacity:1" />
      </g>
    </g>
    <g
       inkscape:groupmode="layer"
       id="layer19"
       inkscape:label="login">
      <g
         style="display:inline"
         id="g6626"
         transform="matrix(5.9863981,0,0,5.9863981,-2088.4127,-4695.2605)">
        <path
           inkscape:connector-curvature="0"
           style="opacity:1;fill:#afb0d0;fill-opacity:1;fill-rule:nonzero;stroke:none;stroke-width:4.22015953;stroke-linecap:round;stroke-linejoin:round;stroke-miterlimit:4;stroke-dasharray:none;stroke-opacity:1"
           d="m 363.88219,788.80682 17.62565,0 c 1.91463,0 3.45601,2.10976 3.45601,4.73041 l 0,26.0172 c 0,2.62065 -1.54138,4.73041 -3.45601,4.73041 l -17.62565,0 c -1.91463,0 -3.45601,-2.10976 -3.45601,-4.73041 l 0,-26.0172 c 0,-2.62065 1.54138,-4.73041 3.45601,-4.73041 z"
           id="rect6624" />
        <path
           sodipodi:nodetypes="csscccc"
           inkscape:connector-curvature="0"
           id="path5241"
           d="m 366.01141,788.21361 c 0,0 0.0561,19.71309 -0.037,26.93842 -0.0347,2.69315 0.34991,4.69538 2.17091,5.32946 2.74607,0.95619 16.81606,3.57334 16.81606,3.57334 l 0,-35.08495 -1.32739,-1.72497 z"
           style="fill:#ffffff;fill-opacity:1;fill-rule:evenodd;stroke:none;stroke-width:1px;stroke-linecap:butt;stroke-linejoin:miter;stroke-opacity:1" />
        <path
           inkscape:connector-curvature="0"
           style="opacity:1;fill:none;fill-opacity:1;fill-rule:nonzero;stroke:#43488a;stroke-width:4.68386078;stroke-linecap:round;stroke-linejoin:round;stroke-miterlimit:4;stroke-dasharray:none;stroke-opacity:1"
           d="m 363.16957,787.07233 18.9182,0 c 2.05504,0 3.70946,2.26447 3.70946,5.0773 l 0,27.92515 c 0,2.81282 -1.65442,5.0773 -3.70946,5.0773 l -18.9182,0 c -2.05504,0 -3.70946,-2.26448 -3.70946,-5.0773 l 0,-27.92515 c 0,-2.81283 1.65442,-5.0773 3.70946,-5.0773 z"
           id="rect5239" />
        <path
           sodipodi:nodetypes="cc"
           inkscape:connector-curvature="0"
           id="path5243"
           d="m 352.67677,805.70326 18.76777,0"
           style="fill:none;fill-rule:evenodd;stroke:#43488a;stroke-width:10;stroke-linecap:butt;stroke-linejoin:miter;stroke-miterlimit:4;stroke-dasharray:none;stroke-opacity:1" />
        <path
           sodipodi:nodetypes="cccc"
           inkscape:transform-center-x="-2.6673884"
           inkscape:connector-curvature="0"
           id="path6621"
           d="m 368.99897,814.94335 0,-18.48017 13.17587,9.24008 z"
           style="opacity:1;fill:#43488a;fill-opacity:1;fill-rule:nonzero;stroke:none;stroke-width:5;stroke-linecap:round;stroke-linejoin:round;stroke-miterlimit:4;stroke-dasharray:none;stroke-opacity:1" />
      </g>
    </g>
  </g>
  <g
     inkscape:groupmode="layer"
     id="layer10"
     inkscape:label="hubzilla_website"
     style="display:inline">
    <g
       inkscape:groupmode="layer"
       id="layer16"
       inkscape:label="directory"
       style="display:inline">
      <path
         style="opacity:1;fill:#5c6099;fill-opacity:1;fill-rule:nonzero;stroke:none;stroke-width:0;stroke-linecap:round;stroke-linejoin:round;stroke-miterlimit:4;stroke-dasharray:none;stroke-opacity:1"
         d="m 871.26258,1057.3983 -12.06702,0 0,47.6733 12.06702,0 c 9.15982,0 8.73435,-6.8164 8.73435,-15.2836 l 0,-17.1061 c 0,-8.4672 0.42534,-15.2836 -8.73435,-15.2836 z"
         id="path8245"
         inkscape:connector-curvature="0"
         sodipodi:nodetypes="sccssss" />
      <path
         style="opacity:1;fill:#afb0d0;fill-opacity:1;fill-rule:nonzero;stroke:none;stroke-width:0;stroke-linecap:round;stroke-linejoin:round;stroke-miterlimit:4;stroke-dasharray:none;stroke-opacity:1"
         d="m 871.26258,1019.1942 -12.06702,0 0,47.6734 12.06702,0 c 9.15982,0 8.73435,-6.8165 8.73435,-15.2836 l 0,-17.1062 c 0,-8.4671 0.42534,-15.2836 -8.73435,-15.2836 z"
         id="path6734-9"
         inkscape:connector-curvature="0"
         sodipodi:nodetypes="sccssss" />
      <path
         sodipodi:nodetypes="sccssss"
         inkscape:connector-curvature="0"
         id="path6732-7"
         d="m 871.26258,977.39824 -12.06702,0 0,47.67336 12.06702,0 c 9.15982,0 8.73435,-6.8165 8.73435,-15.2836 l 0,-17.10617 c 0,-8.46711 0.42534,-15.28359 -8.73435,-15.28359 z"
         style="opacity:1;fill:#43488a;fill-opacity:1;fill-rule:nonzero;stroke:none;stroke-width:0;stroke-linecap:round;stroke-linejoin:round;stroke-miterlimit:4;stroke-dasharray:none;stroke-opacity:1" />
      <path
         style="opacity:1;fill:#7f82ae;fill-opacity:1;fill-rule:nonzero;stroke:none;stroke-width:0;stroke-linecap:round;stroke-linejoin:round;stroke-miterlimit:4;stroke-dasharray:none;stroke-opacity:1"
         d="m 672.90871,961.23492 177.52262,0 c 9.15984,0 16.53402,6.81649 16.53402,15.28361 l 0,225.43267 c 0,8.4671 -7.37418,15.2836 -16.53402,15.2836 l -177.52262,0 c -9.15984,0 -16.53402,-6.8165 -16.53402,-15.2836 l 0,-225.43267 c 0,-8.46712 7.37418,-15.28361 16.53402,-15.28361 z"
         id="rect6723-7"
         inkscape:connector-curvature="0" />
      <path
         style="opacity:1;fill:#43488a;fill-opacity:1;fill-rule:nonzero;stroke:none;stroke-width:0;stroke-linecap:round;stroke-linejoin:round;stroke-miterlimit:4;stroke-dasharray:none;stroke-opacity:1"
         d="m 672.90853,961.23516 12.06699,0 0,255.99984 -12.06699,0 c -9.15981,0 -16.53404,-6.8164 -16.53404,-15.2835 l 0,-225.43273 c 0,-8.4671 7.37423,-15.28361 16.53404,-15.28361 z"
         id="rect6729-7"
         inkscape:connector-curvature="0"
         sodipodi:nodetypes="sccssss" />
      <g
         style="font-style:normal;font-weight:normal;font-size:20px;line-height:125%;font-family:sans-serif;letter-spacing:0px;word-spacing:0px;display:inline;fill:#ffffff;fill-opacity:1;stroke:none;stroke-width:1px;stroke-linecap:butt;stroke-linejoin:miter;stroke-opacity:1"
         id="text8343"
         transform="matrix(1.2922766,0,0,1.2922766,-195.79198,-450.73192)">
        <path
           d="m 752.56873,1125.7125 c -21.525,0 -38.5875,16.5375 -38.5875,37.8 0,20.9125 16.1875,36.4875 37.45,36.4875 6.7375,0 15.4,-2.45 20.5625,-6.3 l -4.025,-7 c -4.9,3.675 -11.4625,5.3375 -16.5375,5.3375 -16.3625,0 -28.875,-12.075 -28.875,-28.525 0,-16.625 13.3875,-29.925 30.0125,-29.925 18.2,0 28.9625,12.95 28.9625,29.6625 0,8.4 -3.5875,14.2625 -7.2625,14.2625 -1.925,0 -3.2375,-1.1375 -3.2375,-4.2875 l 0,-29.4875 -10.675,0 0,4.6375 c -0.4375,-0.9625 -4.9,-5.6 -11.9,-5.6 -10.9375,0 -17.9375,9.3625 -17.9375,20.5625 0,12.1625 9.275,20.2125 19.075,20.2125 4.9875,0 9.8,-2.1 13.2125,-7 l 0.175,1.1375 c 1.1375,4.725 4.9875,6.825 10.2375,6.825 9.8,0 16.8,-8.4875 16.8,-21.525 0,-21.525 -16.0125,-37.275 -37.45,-37.275 z m -1.925,26.775 c 5.6,0 9.0125,4.725 9.0125,10.5 0,6.0375 -3.325,11.025 -8.925,11.025 -5.25,0 -8.575,-5.1625 -8.575,-11.1125 0,-5.6875 3.4125,-10.4125 8.4875,-10.4125 z"
           style="font-style:normal;font-variant:normal;font-weight:bold;font-stretch:normal;font-size:87.5px;font-family:Montserrat;-inkscape-font-specification:'Montserrat Bold';fill:#ffffff;fill-opacity:1"
           id="path8367"
           inkscape:connector-curvature="0" />
      </g>
    </g>
    <g
       inkscape:groupmode="layer"
       id="layer17"
       inkscape:label="upload"
       style="display:inline">
      <path
         style="display:inline;opacity:1;fill:#43488a;fill-opacity:1;fill-rule:nonzero;stroke:none;stroke-width:20;stroke-linecap:round;stroke-linejoin:round;stroke-miterlimit:4;stroke-dasharray:none;stroke-opacity:1"
         d="m 383.80163,1053.2875 c -26.6922,-1.4304 -50.08695,17.2283 -47.83064,54.2411 -32.20752,26.4466 -9.89562,54.4817 15.92204,55.078 5.2949,0.079 188.7427,0 197.9295,0 31.4426,0 36.0069,-45.8981 5.7756,-58.8724 0.7443,-42.8735 -31.6335,-65.5009 -64.5176,-60.804 -20.0257,-40.644 -89.9186,-41.4176 -107.2789,10.3573 z"
         id="path5675-3"
         inkscape:connector-curvature="0"
         sodipodi:nodetypes="ccccccc" />
      <path
         sodipodi:nodetypes="cc"
         inkscape:connector-curvature="0"
         id="path4957"
         d="m 448,1162.6417 0,-68.9397"
         style="fill:none;fill-rule:evenodd;stroke:#ffffff;stroke-width:41.38694382;stroke-linecap:butt;stroke-linejoin:miter;stroke-miterlimit:4;stroke-dasharray:none;stroke-opacity:1" />
      <path
         sodipodi:nodetypes="cccc"
         inkscape:transform-center-x="-3.0106838"
         inkscape:connector-curvature="0"
         id="path4959"
         d="m 491.08701,1102.6853 -86.17397,0 L 448,1054.2864 Z"
         style="opacity:1;fill:#ffffff;fill-opacity:1;fill-rule:nonzero;stroke:none;stroke-width:5;stroke-linecap:round;stroke-linejoin:round;stroke-miterlimit:4;stroke-dasharray:none;stroke-opacity:1"
         inkscape:transform-center-y="-1.9876494e-05" />
    </g>
    <g
       inkscape:groupmode="layer"
       id="layer15"
       inkscape:label="zot"
       transform="translate(0,640)"
       style="display:inline">
      <g
         id="g4575">
        <path
           style="display:inline;opacity:1;fill:#5c6099;fill-opacity:1;fill-rule:nonzero;stroke:#43488a;stroke-width:8.77974892;stroke-linecap:round;stroke-linejoin:round;stroke-miterlimit:4;stroke-dasharray:none;stroke-opacity:1"
           d="m 235.61012,375.98286 0,160.91256 c 0,2.78886 -2.06472,5.03405 -4.62941,5.03405 l -205.961416,0 c -2.564698,0 -4.629419,-2.24519 -4.629419,-5.03405 l 0,-160.91256 c 0,-2.78886 2.064721,-5.03404 4.629419,-5.03404 l 205.961416,0 c 2.56469,0 4.62941,2.24518 4.62941,5.03404 z"
           id="rect4702-9-9"
           inkscape:connector-curvature="0" />
        <g
           style="stroke:#afb0d0;stroke-opacity:1"
           id="g4550">
          <path
             style="fill:none;fill-rule:evenodd;stroke:#afb0d0;stroke-width:0.875px;stroke-linecap:butt;stroke-linejoin:miter;stroke-opacity:1"
             d="m 44.000002,378.03253 0,154"
             id="path7780"
             inkscape:connector-curvature="0" />
          <path
             style="fill:none;fill-rule:evenodd;stroke:#afb0d0;stroke-width:0.875px;stroke-linecap:butt;stroke-linejoin:miter;stroke-opacity:1"
             d="m 58.000002,378.03253 0,154"
             id="path7782"
             inkscape:connector-curvature="0" />
          <path
             style="fill:none;fill-rule:evenodd;stroke:#afb0d0;stroke-width:0.875px;stroke-linecap:butt;stroke-linejoin:miter;stroke-opacity:1"
             d="m 72.000001,378.03253 0,154"
             id="path7784"
             inkscape:connector-curvature="0" />
          <path
             style="fill:none;fill-rule:evenodd;stroke:#afb0d0;stroke-width:0.875px;stroke-linecap:butt;stroke-linejoin:miter;stroke-opacity:1"
             d="m 86.000001,378.03253 0,154"
             id="path7786"
             inkscape:connector-curvature="0" />
          <path
             style="fill:none;fill-rule:evenodd;stroke:#afb0d0;stroke-width:0.875px;stroke-linecap:butt;stroke-linejoin:miter;stroke-opacity:1"
             d="m 100,378.03253 0,154"
             id="path7788"
             inkscape:connector-curvature="0" />
          <path
             style="fill:none;fill-rule:evenodd;stroke:#afb0d0;stroke-width:0.875px;stroke-linecap:butt;stroke-linejoin:miter;stroke-opacity:1"
             d="m 114,378.03253 0,154"
             id="path7790"
             inkscape:connector-curvature="0" />
          <path
             inkscape:connector-curvature="0"
             id="path7792"
             d="m 142.4375,378.03253 0,154"
             style="fill:none;fill-rule:evenodd;stroke:#afb0d0;stroke-width:0.875px;stroke-linecap:butt;stroke-linejoin:miter;stroke-opacity:1" />
          <path
             inkscape:connector-curvature="0"
             id="path7794"
             d="m 156.4375,378.03253 0,154"
             style="fill:none;fill-rule:evenodd;stroke:#afb0d0;stroke-width:0.875px;stroke-linecap:butt;stroke-linejoin:miter;stroke-opacity:1" />
          <path
             inkscape:connector-curvature="0"
             id="path7796"
             d="m 170.4375,378.03253 0,154"
             style="fill:none;fill-rule:evenodd;stroke:#afb0d0;stroke-width:0.875px;stroke-linecap:butt;stroke-linejoin:miter;stroke-opacity:1" />
          <path
             inkscape:connector-curvature="0"
             id="path7798"
             d="m 184.4375,378.03253 0,154"
             style="fill:none;fill-rule:evenodd;stroke:#afb0d0;stroke-width:0.875px;stroke-linecap:butt;stroke-linejoin:miter;stroke-opacity:1" />
          <path
             inkscape:connector-curvature="0"
             id="path7800"
             d="m 198.4375,378.03253 0,154"
             style="fill:none;fill-rule:evenodd;stroke:#afb0d0;stroke-width:0.875px;stroke-linecap:butt;stroke-linejoin:miter;stroke-opacity:1" />
          <path
             inkscape:connector-curvature="0"
             id="path7802"
             d="m 212.4375,378.03253 0,154"
             style="fill:none;fill-rule:evenodd;stroke:#afb0d0;stroke-width:0.875px;stroke-linecap:butt;stroke-linejoin:miter;stroke-opacity:1" />
          <path
             inkscape:connector-curvature="0"
             id="path7804"
             d="m 127.5625,378.03253 0,154"
             style="fill:none;fill-rule:evenodd;stroke:#afb0d0;stroke-width:0.875px;stroke-linecap:butt;stroke-linejoin:miter;stroke-opacity:1" />
          <path
             inkscape:connector-curvature="0"
             id="path7812"
             d="m 30.000002,518.90753 195.999998,0"
             style="fill:none;fill-rule:evenodd;stroke:#afb0d0;stroke-width:0.875px;stroke-linecap:butt;stroke-linejoin:miter;stroke-opacity:1"
             sodipodi:nodetypes="cc" />
          <path
             inkscape:connector-curvature="0"
             id="path7814"
             d="m 30.000002,504.90753 195.999998,0"
             style="fill:none;fill-rule:evenodd;stroke:#afb0d0;stroke-width:0.875px;stroke-linecap:butt;stroke-linejoin:miter;stroke-opacity:1"
             sodipodi:nodetypes="cc" />
          <path
             inkscape:connector-curvature="0"
             id="path7816"
             d="m 30.000002,490.90753 195.999998,0"
             style="fill:none;fill-rule:evenodd;stroke:#afb0d0;stroke-width:0.875px;stroke-linecap:butt;stroke-linejoin:miter;stroke-opacity:1"
             sodipodi:nodetypes="cc" />
          <path
             style="fill:none;fill-rule:evenodd;stroke:#afb0d0;stroke-width:0.875px;stroke-linecap:butt;stroke-linejoin:miter;stroke-opacity:1"
             d="m 30.000002,462.47003 195.999998,0"
             id="path7818"
             inkscape:connector-curvature="0"
             sodipodi:nodetypes="cc" />
          <path
             style="fill:none;fill-rule:evenodd;stroke:#afb0d0;stroke-width:0.875px;stroke-linecap:butt;stroke-linejoin:miter;stroke-opacity:1"
             d="m 30.000002,448.47003 195.999998,0"
             id="path7820"
             inkscape:connector-curvature="0"
             sodipodi:nodetypes="cc" />
          <path
             style="fill:none;fill-rule:evenodd;stroke:#afb0d0;stroke-width:0.875px;stroke-linecap:butt;stroke-linejoin:miter;stroke-opacity:1"
             d="m 30.000002,434.47003 195.999998,0"
             id="path7822"
             inkscape:connector-curvature="0"
             sodipodi:nodetypes="cc" />
          <path
             style="fill:none;fill-rule:evenodd;stroke:#afb0d0;stroke-width:0.875px;stroke-linecap:butt;stroke-linejoin:miter;stroke-opacity:1"
             d="m 30.000002,420.47003 195.999998,0"
             id="path7824"
             inkscape:connector-curvature="0"
             sodipodi:nodetypes="cc" />
          <path
             style="fill:none;fill-rule:evenodd;stroke:#afb0d0;stroke-width:0.875px;stroke-linecap:butt;stroke-linejoin:miter;stroke-opacity:1"
             d="m 30.000002,406.47003 195.999998,0"
             id="path7826"
             inkscape:connector-curvature="0"
             sodipodi:nodetypes="cc" />
          <path
             style="fill:none;fill-rule:evenodd;stroke:#afb0d0;stroke-width:0.875px;stroke-linecap:butt;stroke-linejoin:miter;stroke-opacity:1"
             d="m 30.000002,392.47003 195.999998,0"
             id="path7828"
             inkscape:connector-curvature="0"
             sodipodi:nodetypes="cc" />
          <path
             style="fill:none;fill-rule:evenodd;stroke:#afb0d0;stroke-width:0.875px;stroke-linecap:butt;stroke-linejoin:miter;stroke-opacity:1"
             d="m 30.000002,477.34503 195.999998,0"
             id="path7830"
             inkscape:connector-curvature="0"
             sodipodi:nodetypes="cc" />
        </g>
        <path
           style="opacity:1;fill:none;fill-opacity:1;fill-rule:nonzero;stroke:#43488a;stroke-width:1.75;stroke-linecap:round;stroke-linejoin:miter;stroke-miterlimit:4;stroke-dasharray:none;stroke-opacity:1"
           d="m 35.015957,378.03253 185.968093,0 c 2.77883,0 5.01595,2.05815 5.01595,4.61468 l 0,144.77064 c 0,2.55652 -2.23712,4.61468 -5.01595,4.61468 l -185.968093,0 c -2.778839,0 -5.015955,-2.05816 -5.015955,-4.61468 l 0,-144.77064 c 0,-2.55653 2.237116,-4.61468 5.015955,-4.61468 z"
           id="rect7862"
           inkscape:connector-curvature="0" />
        <path
           inkscape:connector-curvature="0"
           id="path8333"
           style="font-style:normal;font-variant:normal;font-weight:600;font-stretch:normal;font-size:119.79437256px;line-height:125%;font-family:Montserrat;-inkscape-font-specification:'Montserrat Semi-Bold';text-align:center;letter-spacing:0px;word-spacing:0px;text-anchor:middle;fill:#ffffff;fill-opacity:1;stroke:none;stroke-width:1px;stroke-linecap:butt;stroke-linejoin:miter;stroke-opacity:1"
           d="m 66.221856,435.8799 c 0,-5.03136 2.201222,-6.91812 9.538627,-6.91812 l 0,-12.47359 -6.184385,0 c -12.997689,0 -17.714592,3.77352 -17.714592,14.25553 l 0,20.02063 c 0,3.45907 -1.153021,4.82173 -4.087983,4.82173 l -3.773523,0 0,12.78805 3.773523,0 c 2.934962,0 4.087983,1.36266 4.087983,4.92654 l 0,19.91581 c 0,10.58684 4.716903,14.36035 17.714592,14.36035 l 6.184385,0 0,-12.47359 c -7.337405,0 -9.538627,-1.88676 -9.538627,-6.91812 l 0,-13.83625 c 0,-7.3374 -2.096401,-10.79646 -8.175966,-12.36877 6.079565,-1.46748 8.175966,-4.92654 8.175966,-12.26395 l 0,-13.83625 z" />
        <path
           inkscape:connector-curvature="0"
           id="path8336"
           style="font-style:normal;font-variant:normal;font-weight:600;font-stretch:normal;font-size:119.79437256px;line-height:125%;font-family:Montserrat;-inkscape-font-specification:'Montserrat Semi-Bold';text-align:center;letter-spacing:0px;word-spacing:0px;text-anchor:middle;fill:#ffffff;fill-opacity:1;stroke:none;stroke-width:1px;stroke-linecap:butt;stroke-linejoin:miter;stroke-opacity:1"
           d="m 211.99999,455.58608 -3.77352,0 c -2.93496,0 -4.08799,-1.36266 -4.08799,-4.82173 l 0,-20.02063 c 0,-10.48201 -4.71689,-14.25553 -17.71458,-14.25553 l -6.18439,0 0,12.47359 c 7.23259,0 9.43381,1.88676 9.43381,6.91812 l 0,13.83625 c 0,7.33741 2.20122,10.79647 8.28079,12.26395 -6.07957,1.57231 -8.28079,5.03137 -8.28079,12.36877 l 0,13.83625 c 0,5.03136 -2.20122,6.91812 -9.43381,6.91812 l 0,12.47359 6.18439,0 c 12.99769,0 17.71458,-3.77351 17.71458,-14.36035 l 0,-19.91581 c 0,-3.56388 1.15303,-4.92654 4.08799,-4.92654 l 3.77352,0 0,-12.78805 z" />
        <path
           inkscape:connector-curvature="0"
           id="path8339"
           style="font-style:normal;font-variant:normal;font-weight:600;font-stretch:normal;font-size:119.79437256px;line-height:125%;font-family:Montserrat;-inkscape-font-specification:'Montserrat Semi-Bold';text-align:center;letter-spacing:0px;word-spacing:0px;text-anchor:middle;fill:#ffffff;fill-opacity:1;stroke:none;stroke-width:1px;stroke-linecap:butt;stroke-linejoin:miter;stroke-opacity:1"
           d="m 152.10862,444.60271 0,-10.16755 -48.11242,0 0,12.57841 27.98697,0.10481 -29.03516,33.43761 0,10.16755 50.10399,0.10481 0,-12.78804 -29.97854,0 29.03516,-33.4376 z" />
        <path
           inkscape:connector-curvature="0"
           id="rect7982"
           d="m 167.85218,361.35482 9.71942,-9.71942 c 0.89742,-0.89742 2.34237,-0.89742 3.2398,10e-6 l 74.51554,74.51553 c 0.89743,0.89743 0.89743,2.34238 0,3.23981 l -9.71942,9.71941 c -0.89743,0.89743 -2.34238,0.89743 -3.23981,0 l -74.51553,-74.51553 c -0.89743,-0.89743 -0.89743,-2.34238 0,-3.23981 z"
           style="opacity:1;fill:#d5d6e5;fill-opacity:1;fill-rule:nonzero;stroke:none;stroke-width:10;stroke-linecap:round;stroke-linejoin:round;stroke-miterlimit:4;stroke-dasharray:none;stroke-opacity:1" />
        <path
           inkscape:connector-curvature="0"
           id="path7984"
           d="m 185.67111,362.97472 3.2398,-3.2398"
           style="fill:none;fill-rule:evenodd;stroke:#7f82ae;stroke-width:1.71816659;stroke-linecap:butt;stroke-linejoin:miter;stroke-miterlimit:4;stroke-dasharray:none;stroke-opacity:1" />
        <path
           sodipodi:nodetypes="cc"
           inkscape:connector-curvature="0"
           id="path7986"
           d="m 196.74176,371.34291 1.88857,-1.88857"
           style="fill:none;fill-rule:evenodd;stroke:#7f82ae;stroke-width:1.71816659;stroke-linecap:butt;stroke-linejoin:miter;stroke-miterlimit:4;stroke-dasharray:none;stroke-opacity:1" />
        <path
           inkscape:connector-curvature="0"
           id="path7988"
           d="m 205.10995,382.41356 3.2398,-3.2398"
           style="fill:none;fill-rule:evenodd;stroke:#7f82ae;stroke-width:1.71816659;stroke-linecap:butt;stroke-linejoin:miter;stroke-miterlimit:4;stroke-dasharray:none;stroke-opacity:1" />
        <path
           sodipodi:nodetypes="cc"
           inkscape:connector-curvature="0"
           id="path7990"
           d="m 216.1806,390.78174 1.88857,-1.88857"
           style="fill:none;fill-rule:evenodd;stroke:#7f82ae;stroke-width:1.71816659;stroke-linecap:butt;stroke-linejoin:miter;stroke-miterlimit:4;stroke-dasharray:none;stroke-opacity:1" />
        <path
           inkscape:connector-curvature="0"
           id="path7992"
           d="m 224.54878,401.8524 3.23981,-3.23981"
           style="fill:none;fill-rule:evenodd;stroke:#7f82ae;stroke-width:1.71816659;stroke-linecap:butt;stroke-linejoin:miter;stroke-miterlimit:4;stroke-dasharray:none;stroke-opacity:1" />
        <path
           sodipodi:nodetypes="cc"
           inkscape:connector-curvature="0"
           id="path7994"
           d="m 235.61944,410.22058 1.88856,-1.88857"
           style="fill:none;fill-rule:evenodd;stroke:#7f82ae;stroke-width:1.71816659;stroke-linecap:butt;stroke-linejoin:miter;stroke-miterlimit:4;stroke-dasharray:none;stroke-opacity:1" />
        <path
           inkscape:connector-curvature="0"
           id="path7996"
           d="m 243.98762,421.29123 3.2398,-3.2398"
           style="fill:none;fill-rule:evenodd;stroke:#7f82ae;stroke-width:1.71816659;stroke-linecap:butt;stroke-linejoin:miter;stroke-miterlimit:4;stroke-dasharray:none;stroke-opacity:1" />
        <path
           sodipodi:nodetypes="sccssss"
           inkscape:connector-curvature="0"
           id="rect8016"
           d="m 167.85218,361.35482 8.09951,-8.09952 77.75535,77.75535 -8.09952,8.09951 c -0.89743,0.89743 -2.34238,0.89743 -3.23981,0 l -74.51553,-74.51553 c -0.89743,-0.89743 -0.89743,-2.34238 0,-3.23981 z"
           style="opacity:1;fill:#afb0d0;fill-opacity:1;fill-rule:nonzero;stroke:none;stroke-width:10;stroke-linecap:round;stroke-linejoin:round;stroke-miterlimit:4;stroke-dasharray:none;stroke-opacity:1" />
        <path
           inkscape:connector-curvature="0"
           id="rect8027"
           d="m 64.600072,371.15168 3.452337,3.45233 -38.907846,38.90785 -3.452336,-3.45234 z"
           style="opacity:1;fill:#d5d6e5;fill-opacity:1;fill-rule:nonzero;stroke:none;stroke-width:2;stroke-linecap:round;stroke-linejoin:round;stroke-miterlimit:4;stroke-dasharray:none;stroke-opacity:1" />
        <path
           inkscape:connector-curvature="0"
           id="rect8025"
           d="m 36.121685,398.62766 4.454736,4.45474 c 1.373226,1.37323 1.373224,3.58427 -3e-6,4.9575 l -30.134266,30.13426 c -1.3732264,1.37323 -3.5842701,1.37323 -4.9574963,0 l -4.4547355,-4.45473 c -1.3732256,-1.37323 -1.37322376,-3.58427 2.5e-6,-4.9575 L 31.164189,398.62767 c 1.373226,-1.37323 3.584271,-1.37323 4.957496,-1e-5 z"
           style="opacity:1;fill:#7f82ae;fill-opacity:1;fill-rule:nonzero;stroke:none;stroke-width:1.93088472;stroke-linecap:round;stroke-linejoin:round;stroke-miterlimit:4;stroke-dasharray:none;stroke-opacity:1" />
        <path
           sodipodi:nodetypes="ccssszsc"
           inkscape:connector-curvature="0"
           id="path8031"
           d="m 76.428794,364.07396 -1.526456,-1.52646 c -0.993938,-0.99394 -6.62565,0.81515 -7.482405,1.6719 -0.640303,0.6403 -1.648755,2.09423 -2.373564,3.28263 -0.584006,0.95753 -0.934739,5.60705 -0.05694,6.48484 0.946786,0.94679 5.581921,0.54316 6.647698,0.10591 1.065792,-0.43727 2.327492,-1.28856 3.342582,-2.30365 0.635953,-0.63595 2.710364,-6.4539 1.44909,-7.71517 z"
           style="fill:#d5d6e5;fill-opacity:1;fill-rule:evenodd;stroke:none;stroke-width:1px;stroke-linecap:butt;stroke-linejoin:miter;stroke-opacity:1" />
      </g>
    </g>
    <g
       inkscape:groupmode="layer"
       id="layer14"
       inkscape:label="accesscontrol"
       transform="translate(0,640)"
       style="display:inline">
      <path
         style="opacity:1;fill:#43488a;fill-opacity:1;fill-rule:nonzero;stroke:none;stroke-width:0;stroke-linecap:round;stroke-linejoin:round;stroke-miterlimit:4;stroke-dasharray:none;stroke-opacity:1"
         d="m 1088.0752,0.2588637 c -41.2934,0 -74.5402,35.5776833 -74.5402,79.7706263 -1.323,41.42943 -2.3277,92.302 27.7551,119.14403 -5.9948,-37.7216 -2.5594,-78.52141 -2.5594,-117.830802 0,-30.979132 21.7908,-55.910633 48.8549,-55.910633 27.0639,0 48.8328,24.931501 48.8328,55.910633 -2.5452,38.801462 4.8658,81.876222 -2.8491,118.876922 34.8253,-37.09198 29.0461,-71.84847 29.0461,-120.19015 0,-44.192943 -33.2465,-79.7706263 -74.5402,-79.7706263 z M 1041.2901,199.17352 Z"
         id="rect4514-0-4"
         inkscape:connector-curvature="0"
         sodipodi:nodetypes="scccscccscc" />
      <path
         style="opacity:1;fill:#afb0d0;fill-opacity:1;fill-rule:nonzero;stroke:#d2eff8;stroke-width:0;stroke-linecap:round;stroke-linejoin:round;stroke-miterlimit:4;stroke-dasharray:none;stroke-opacity:1"
         d="m 1005.9573,100.23933 164.0853,0 c 9.2343,0 16.6685,7.15691 16.6685,16.0469 l 0,123.92571 c 0,8.88998 -7.4342,16.0469 -16.6685,16.0469 l -164.0853,0 c -9.23433,0 -16.66848,-7.15692 -16.66848,-16.0469 l 0,-123.92571 c 0,-8.88999 7.43415,-16.0469 16.66848,-16.0469 z"
         id="rect6711-4-8"
         inkscape:connector-curvature="0" />
      <path
         style="opacity:1;fill:#43488a;fill-opacity:1;fill-rule:nonzero;stroke:none;stroke-width:0;stroke-linecap:round;stroke-linejoin:round;stroke-miterlimit:4;stroke-dasharray:none;stroke-opacity:1"
         d="m 1112.3122,157.70886 a 24.312763,24.312763 0 0 1 -24.3128,24.31277 24.312763,24.312763 0 0 1 -24.3128,-24.31277 24.312763,24.312763 0 0 1 24.3128,-24.31276 24.312763,24.312763 0 0 1 24.3128,24.31276 z"
         id="path6715-5-1"
         inkscape:connector-curvature="0" />
      <path
         style="opacity:1;fill:#43488a;fill-opacity:1;fill-rule:nonzero;stroke:none;stroke-width:0;stroke-linecap:round;stroke-linejoin:round;stroke-miterlimit:4;stroke-dasharray:none;stroke-opacity:1"
         d="m 1088.0003,161.90083 c 5.8057,0 10.4796,6.18769 10.4796,13.87375 l 0,35.13035 c 0,7.68606 -4.6739,13.87375 -10.4796,13.87375 -5.8058,0 -10.4797,-6.18769 -10.4797,-13.87375 l 0,-35.13035 c 0,-7.68606 4.6739,-13.87375 10.4797,-13.87375 z"
         id="rect6717-6-2"
         inkscape:connector-curvature="0" />
    </g>
    <g
       inkscape:groupmode="layer"
       id="layer13"
       inkscape:label="nomadic"
       transform="translate(0,640)"
       style="display:inline">
      <path
         inkscape:connector-curvature="0"
         id="path4318"
         d="m 799.4273,26.22617 -95.62564,54.60317 26.51963,0.0499 0,101.4326 139.15907,0 0,-101.17299 L 896,81.18875 799.4273,26.22627 Z"
         style="display:inline;fill:#43488a;fill-opacity:1;stroke:none" />
      <path
         inkscape:connector-curvature="0"
         id="path4604"
         d="m 799.71485,83.86812 a 22.880084,22.880084 0 0 0 -22.87974,22.87974 22.880084,22.880084 0 0 0 8.92421,18.09641 c -5.34422,5.7412 -14.50059,19.08335 -10.82157,40.6799 l 49.39274,0.24966 c 0,0 5.85463,-24.21305 -10.68176,-40.89627 a 22.880084,22.880084 0 0 0 8.94585,-18.1297 22.880084,22.880084 0 0 0 -22.87973,-22.87974 z"
         style="display:inline;opacity:1;fill:#ffffff;fill-opacity:1;fill-rule:nonzero;stroke:none;stroke-width:6;stroke-linecap:round;stroke-linejoin:round;stroke-miterlimit:4;stroke-dasharray:none;stroke-opacity:1" />
      <path
         style="display:inline;fill:#afb0d0;fill-opacity:1;stroke:none"
         d="M 735.62564,26.22617 640,80.82934 l 26.51963,0.0499 0,101.4326 139.15907,0 0,-101.17299 26.51964,0.0499 -96.5727,-54.96247 z"
         id="path4992-9"
         inkscape:connector-curvature="0" />
      <path
         style="display:inline;opacity:1;fill:#ffffff;fill-opacity:1;fill-rule:nonzero;stroke:none;stroke-width:6;stroke-linecap:round;stroke-linejoin:round;stroke-miterlimit:4;stroke-dasharray:none;stroke-opacity:1"
         d="m 735.91319,83.86812 a 22.880084,22.880084 0 0 0 -22.87974,22.87974 22.880084,22.880084 0 0 0 8.92421,18.09641 c -5.34421,5.7412 -14.50059,19.08335 -10.82157,40.6799 l 49.39274,0.24966 c 0,0 5.85463,-24.21305 -10.68176,-40.89627 a 22.880084,22.880084 0 0 0 8.94585,-18.1297 22.880084,22.880084 0 0 0 -22.87973,-22.87974 z"
         id="path4706-9-2-5-9"
         inkscape:connector-curvature="0" />
      <g
         style="display:inline"
         id="g4437-4"
         transform="matrix(0.65641378,-0.09447708,0.09447708,0.65641378,834.14585,-396.66173)">
        <path
           transform="matrix(0,1,-1,0,0,0)"
           sodipodi:nodetypes="sssssssss"
           inkscape:connector-curvature="0"
           id="rect4702-1-9"
           d="m 810.2222,102.18482 102.14832,0 c 1.91132,0 3.45004,1.41562 3.45004,3.17404 l 0,141.21209 c 0,1.75842 -1.53872,3.17404 -3.45004,3.17404 l -102.14832,0 c -1.91132,0 -3.45004,-1.41562 -3.45004,-3.17404 l 0,-141.21209 c 0,-1.75842 1.53872,-3.17404 3.45004,-3.17404 z"
           style="opacity:1;fill:#ffffff;fill-opacity:1;fill-rule:nonzero;stroke:#afb0d0;stroke-width:6.51000738;stroke-linecap:round;stroke-linejoin:round;stroke-miterlimit:4;stroke-dasharray:none;stroke-opacity:1" />
        <path
           id="rect4710-5-1"
           d="m -250.34961,803.51758 c -1.46809,0 -2.65039,1.39822 -2.65039,3.13672 l 0,15.80468 153.984375,0 0,-15.80468 c 0.488323,-1.64411 -1.182305,-3.13672 -2.650395,-3.13672 l -148.68359,0 z m 65.27734,8.57226 18.21485,0 c 0.831,0 1.5,0.669 1.5,1.5 l 0,0.53516 c 0,0.831 -0.669,1.5 -1.5,1.5 l -18.21485,0 c -0.831,0 -1.5,-0.669 -1.5,-1.5 l 0,-0.53516 c 0,-0.831 0.669,-1.5 1.5,-1.5 z"
           style="opacity:1;fill:#7f82ae;fill-opacity:1;fill-rule:nonzero;stroke:none;stroke-width:2.18124485;stroke-linecap:round;stroke-linejoin:round;stroke-miterlimit:4;stroke-dasharray:none;stroke-opacity:1"
           inkscape:connector-curvature="0" />
        <path
           style="opacity:1;fill:#7f82ae;fill-opacity:1;fill-rule:nonzero;stroke:none;stroke-width:2.18124485;stroke-linecap:round;stroke-linejoin:round;stroke-miterlimit:4;stroke-dasharray:none;stroke-opacity:1"
           d="m -98.929817,908.26531 0,7.67219 c 0,0 -1.181893,3.13806 -2.649983,3.13806 l -148.68357,0 c -1.46809,0 -3.13831,-1.49395 -2.64999,-3.13806 l 0,-7.67219 z"
           id="path4375-9"
           inkscape:connector-curvature="0"
           sodipodi:nodetypes="csssscc" />
        <rect
           transform="matrix(0,1,-1,0,0,0)"
           style="opacity:1;fill:#ffffff;fill-opacity:0.50196078;fill-rule:nonzero;stroke:none;stroke-width:2.18124485;stroke-linecap:round;stroke-linejoin:round;stroke-miterlimit:4;stroke-dasharray:none;stroke-opacity:1"
           id="rect4394-1"
           width="25.689421"
           height="15.173625"
           x="788.50732"
           y="168.3781"
           rx="0.7563535"
           ry="0.3263869" />
        <path
           inkscape:connector-curvature="0"
           transform="matrix(0,1,-1,0,0,0)"
           style="opacity:1;fill:#7f82ae;fill-opacity:1;fill-rule:nonzero;stroke:none;stroke-width:2.18124485;stroke-linecap:round;stroke-linejoin:round;stroke-miterlimit:4;stroke-dasharray:none;stroke-opacity:1"
           d="m 831.09841,187.10168 47.01744,0 c 0.81488,0 1.47091,0.46697 1.47091,1.04702 l 0,46.58138 c 0,0.58005 -0.65603,1.04702 -1.47091,1.04702 l -47.01744,0 c -0.81488,0 -1.47091,-0.46697 -1.47091,-1.04702 l 0,-46.58138 c 0,-0.58005 0.65603,-1.04702 1.47091,-1.04702 z"
           id="rect4704-6-0" />
        <path
           inkscape:connector-curvature="0"
           id="path4706-9-2-7-9"
           d="m -211.43842,836.10995 a 12.145094,12.145094 0 0 0 -12.14491,12.14491 12.145094,12.145094 0 0 0 4.73711,9.60585 c -2.83679,3.04751 -7.69714,10.12973 -5.74425,21.59351 l 26.21841,0.13252 c 0,0 3.10773,-12.85265 -5.67004,-21.70836 a 12.145094,12.145094 0 0 0 4.7486,-9.62352 12.145094,12.145094 0 0 0 -12.14492,-12.14491 z"
           style="display:inline;opacity:1;fill:#ffffff;fill-opacity:1;fill-rule:nonzero;stroke:none;stroke-width:6;stroke-linecap:round;stroke-linejoin:round;stroke-miterlimit:4;stroke-dasharray:none;stroke-opacity:1" />
        <path
           inkscape:connector-curvature="0"
           id="path4397-9"
           d="m -180.98166,832.48753 64.82895,0"
           style="fill:none;fill-rule:evenodd;stroke:#b8bad0;stroke-width:5.08909273;stroke-linecap:butt;stroke-linejoin:miter;stroke-miterlimit:4;stroke-dasharray:none;stroke-opacity:0.50196078" />
        <path
           style="fill:none;fill-rule:evenodd;stroke:#b8bad0;stroke-width:5.08909273;stroke-linecap:butt;stroke-linejoin:miter;stroke-miterlimit:4;stroke-dasharray:none;stroke-opacity:0.50196078"
           d="m -180.98166,843.48753 64.82895,0"
           id="path4399-1"
           inkscape:connector-curvature="0" />
        <path
           inkscape:connector-curvature="0"
           id="path4401-1"
           d="m -180.98166,854.48753 64.82895,0"
           style="fill:none;fill-rule:evenodd;stroke:#b8bad0;stroke-width:5.08909273;stroke-linecap:butt;stroke-linejoin:miter;stroke-miterlimit:4;stroke-dasharray:none;stroke-opacity:0.50196078" />
        <path
           style="fill:none;fill-rule:evenodd;stroke:#b8bad0;stroke-width:5.08909273;stroke-linecap:butt;stroke-linejoin:miter;stroke-miterlimit:4;stroke-dasharray:none;stroke-opacity:0.50196078"
           d="m -180.98166,865.48753 64.82895,0"
           id="path4403-2"
           inkscape:connector-curvature="0" />
        <path
           inkscape:connector-curvature="0"
           id="path4405-8"
           d="m -180.98166,876.48753 64.82895,0"
           style="fill:none;fill-rule:evenodd;stroke:#b8bad0;stroke-width:5.08909273;stroke-linecap:butt;stroke-linejoin:miter;stroke-miterlimit:4;stroke-dasharray:none;stroke-opacity:0.50196078" />
        <path
           sodipodi:nodetypes="cc"
           style="fill:none;fill-rule:evenodd;stroke:#b8bad0;stroke-width:4.90942717;stroke-linecap:butt;stroke-linejoin:miter;stroke-miterlimit:4;stroke-dasharray:none;stroke-opacity:0.50196078"
           d="m -235.7771,887.48753 119.62439,0"
           id="path4407-0"
           inkscape:connector-curvature="0" />
        <path
           inkscape:connector-curvature="0"
           id="path4409-0"
           d="m -235.7771,898.48753 119.62439,0"
           style="fill:none;fill-rule:evenodd;stroke:#b8bad0;stroke-width:4.90942717;stroke-linecap:butt;stroke-linejoin:miter;stroke-miterlimit:4;stroke-dasharray:none;stroke-opacity:0.50196078"
           sodipodi:nodetypes="cc" />
      </g>
    </g>
    <g
       inkscape:groupmode="layer"
       id="layer12"
       inkscape:label="channel"
       transform="translate(0,640)"
       style="display:inline">
      <path
         style="display:inline;fill:#43488a;fill-opacity:1;stroke:none"
         d="m 447.3317,24.258851 -127.43087,72.76427 35.3401,0.0665 0,135.169239 185.44359,0 0,-134.823279 35.34011,0.0665 L 447.3317,24.258998 Z"
         id="path4992-9-3"
         inkscape:connector-curvature="0" />
      <g
         style="font-style:normal;font-weight:normal;font-size:20px;line-height:125%;font-family:sans-serif;letter-spacing:0px;word-spacing:0px;display:inline;fill:#ffffff;fill-opacity:1;stroke:none;stroke-width:1px;stroke-linecap:butt;stroke-linejoin:miter;stroke-opacity:1"
         id="text8343-7"
         transform="matrix(1.4729575,0,0,1.4729575,-659.66401,-1560.8378)">
        <path
           d="m 752.56873,1125.7125 c -21.525,0 -38.5875,16.5375 -38.5875,37.8 0,20.9125 16.1875,36.4875 37.45,36.4875 6.7375,0 15.4,-2.45 20.5625,-6.3 l -4.025,-7 c -4.9,3.675 -11.4625,5.3375 -16.5375,5.3375 -16.3625,0 -28.875,-12.075 -28.875,-28.525 0,-16.625 13.3875,-29.925 30.0125,-29.925 18.2,0 28.9625,12.95 28.9625,29.6625 0,8.4 -3.5875,14.2625 -7.2625,14.2625 -1.925,0 -3.2375,-1.1375 -3.2375,-4.2875 l 0,-29.4875 -10.675,0 0,4.6375 c -0.4375,-0.9625 -4.9,-5.6 -11.9,-5.6 -10.9375,0 -17.9375,9.3625 -17.9375,20.5625 0,12.1625 9.275,20.2125 19.075,20.2125 4.9875,0 9.8,-2.1 13.2125,-7 l 0.175,1.1375 c 1.1375,4.725 4.9875,6.825 10.2375,6.825 9.8,0 16.8,-8.4875 16.8,-21.525 0,-21.525 -16.0125,-37.275 -37.45,-37.275 z m -1.925,26.775 c 5.6,0 9.0125,4.725 9.0125,10.5 0,6.0375 -3.325,11.025 -8.925,11.025 -5.25,0 -8.575,-5.1625 -8.575,-11.1125 0,-5.6875 3.4125,-10.4125 8.4875,-10.4125 z"
           style="font-style:normal;font-variant:normal;font-weight:bold;font-stretch:normal;font-size:87.5px;font-family:Montserrat;-inkscape-font-specification:'Montserrat Bold';fill:#ffffff;fill-opacity:1"
           id="path8367-5"
           inkscape:connector-curvature="0" />
      </g>
    </g>
    <g
       inkscape:groupmode="layer"
       id="layer11"
       inkscape:label="grid"
       transform="translate(0,640)"
       style="display:inline">
      <path
         style="fill:none;fill-rule:evenodd;stroke:#43488a;stroke-width:5;stroke-linecap:butt;stroke-linejoin:miter;stroke-miterlimit:4;stroke-dasharray:none;stroke-opacity:1"
         d="M 64,40 164.0101,67.989899"
         id="path8514"
         inkscape:connector-curvature="0"
         sodipodi:nodetypes="cc" />
      <path
         sodipodi:nodetypes="cc"
         inkscape:connector-curvature="0"
         id="path8510"
         d="M 58.7892,109.2108 32,184"
         style="fill:none;fill-rule:evenodd;stroke:#43488a;stroke-width:5;stroke-linecap:butt;stroke-linejoin:miter;stroke-miterlimit:4;stroke-dasharray:none;stroke-opacity:1" />
      <path
         style="fill:none;fill-rule:evenodd;stroke:#43488a;stroke-width:5;stroke-linecap:butt;stroke-linejoin:miter;stroke-miterlimit:4;stroke-dasharray:none;stroke-opacity:1"
         d="M 164.0101,67.989899 224,120"
         id="path8508"
         inkscape:connector-curvature="0"
         sodipodi:nodetypes="cc" />
      <path
         style="fill:none;fill-rule:evenodd;stroke:#43488a;stroke-width:5;stroke-linecap:butt;stroke-linejoin:miter;stroke-miterlimit:4;stroke-dasharray:none;stroke-opacity:1"
         d="M 224,120 240,72"
         id="path8506"
         inkscape:connector-curvature="0"
         sodipodi:nodetypes="cc" />
      <path
         sodipodi:nodetypes="cc"
         inkscape:connector-curvature="0"
         id="path8502"
         d="M 240,72 224,24"
         style="fill:none;fill-rule:evenodd;stroke:#43488a;stroke-width:5;stroke-linecap:butt;stroke-linejoin:miter;stroke-miterlimit:4;stroke-dasharray:none;stroke-opacity:1" />
      <path
         style="fill:none;fill-rule:evenodd;stroke:#43488a;stroke-width:5;stroke-linecap:butt;stroke-linejoin:miter;stroke-miterlimit:4;stroke-dasharray:none;stroke-opacity:1"
         d="M 64,40 16,56"
         id="path8490"
         inkscape:connector-curvature="0"
         sodipodi:nodetypes="cc" />
      <path
         style="fill:none;fill-rule:evenodd;stroke:#43488a;stroke-width:10;stroke-linecap:butt;stroke-linejoin:miter;stroke-miterlimit:4;stroke-dasharray:none;stroke-opacity:1"
         d="M 58.7892,109.2108 164.0101,67.989899"
         id="path8466"
         inkscape:connector-curvature="0"
         sodipodi:nodetypes="cc" />
      <path
         sodipodi:nodetypes="cc"
         inkscape:connector-curvature="0"
         id="path8468"
         d="m 58.7892,109.2108 85.2108,72"
         style="fill:none;fill-rule:evenodd;stroke:#43488a;stroke-width:10;stroke-linecap:butt;stroke-linejoin:miter;stroke-miterlimit:4;stroke-dasharray:none;stroke-opacity:1" />
      <path
         style="fill:none;fill-rule:evenodd;stroke:#43488a;stroke-width:10;stroke-linecap:butt;stroke-linejoin:miter;stroke-miterlimit:4;stroke-dasharray:none;stroke-opacity:1"
         d="M 164.0101,67.989899 144,181.2108"
         id="path8470"
         inkscape:connector-curvature="0"
         sodipodi:nodetypes="cc" />
      <path
         sodipodi:nodetypes="cc"
         inkscape:connector-curvature="0"
         id="path8492"
         d="M 58.7892,109.2108 64,40"
         style="fill:none;fill-rule:evenodd;stroke:#43488a;stroke-width:5;stroke-linecap:butt;stroke-linejoin:miter;stroke-miterlimit:4;stroke-dasharray:none;stroke-opacity:1" />
      <path
         style="fill:none;fill-rule:evenodd;stroke:#43488a;stroke-width:5;stroke-linecap:butt;stroke-linejoin:miter;stroke-miterlimit:4;stroke-dasharray:none;stroke-opacity:1"
         d="M 164.0101,67.989899 224,24"
         id="path8494"
         inkscape:connector-curvature="0"
         sodipodi:nodetypes="cc" />
      <path
         sodipodi:nodetypes="cc"
         inkscape:connector-curvature="0"
         id="path8496"
         d="M 164.0101,67.989899 240,72"
         style="fill:none;fill-rule:evenodd;stroke:#43488a;stroke-width:5;stroke-linecap:butt;stroke-linejoin:miter;stroke-miterlimit:4;stroke-dasharray:none;stroke-opacity:1" />
      <path
         style="fill:none;fill-rule:evenodd;stroke:#43488a;stroke-width:5;stroke-linecap:butt;stroke-linejoin:miter;stroke-miterlimit:4;stroke-dasharray:none;stroke-opacity:1"
         d="M 144,181.2108 176,232"
         id="path8498"
         inkscape:connector-curvature="0"
         sodipodi:nodetypes="cc" />
      <path
         sodipodi:nodetypes="cc"
         inkscape:connector-curvature="0"
         id="path8500"
         d="m 176,232 32,-32"
         style="fill:none;fill-rule:evenodd;stroke:#43488a;stroke-width:5;stroke-linecap:butt;stroke-linejoin:miter;stroke-miterlimit:4;stroke-dasharray:none;stroke-opacity:1" />
      <path
         style="opacity:1;fill:#7f82ae;fill-opacity:1;fill-rule:nonzero;stroke:none;stroke-width:2.81669521;stroke-linecap:round;stroke-linejoin:round;stroke-miterlimit:4;stroke-dasharray:none;stroke-opacity:1"
         d="M 256,72 A 16,16 0 0 1 240,88 16,16 0 0 1 224,72 16,16 0 0 1 240,56 16,16 0 0 1 256,72 Z"
         id="circle8474"
         inkscape:connector-curvature="0" />
      <path
         style="opacity:1;fill:#7f82ae;fill-opacity:1;fill-rule:nonzero;stroke:none;stroke-width:2.81669521;stroke-linecap:round;stroke-linejoin:round;stroke-miterlimit:4;stroke-dasharray:none;stroke-opacity:1"
         d="m 192,232 a 16,16 0 0 1 -16,16 16,16 0 0 1 -16,-16 16,16 0 0 1 16,-16 16,16 0 0 1 16,16 z"
         id="circle8478"
         inkscape:connector-curvature="0" />
      <path
         style="opacity:1;fill:#7f82ae;fill-opacity:1;fill-rule:nonzero;stroke:none;stroke-width:2.81669521;stroke-linecap:round;stroke-linejoin:round;stroke-miterlimit:4;stroke-dasharray:none;stroke-opacity:1"
         d="M 240,24 A 16,16 0 0 1 224,40 16,16 0 0 1 208,24 16,16 0 0 1 224,8 16,16 0 0 1 240,24 Z"
         id="circle8480"
         inkscape:connector-curvature="0" />
      <path
         style="opacity:1;fill:#afb0d0;fill-opacity:1;fill-rule:nonzero;stroke:none;stroke-width:2.81669521;stroke-linecap:round;stroke-linejoin:round;stroke-miterlimit:4;stroke-dasharray:none;stroke-opacity:1"
         d="M 32,56 A 16,16 0 0 1 16,72 16,16 0 0 1 0,56 16,16 0 0 1 16,40 16,16 0 0 1 32,56 Z"
         id="circle8484"
         inkscape:connector-curvature="0" />
      <path
         style="opacity:1;fill:#7f82ae;fill-opacity:1;fill-rule:nonzero;stroke:none;stroke-width:2.81669521;stroke-linecap:round;stroke-linejoin:round;stroke-miterlimit:4;stroke-dasharray:none;stroke-opacity:1"
         d="m 224,200 a 16,16 0 0 1 -16,16 16,16 0 0 1 -16,-16 16,16 0 0 1 16,-16 16,16 0 0 1 16,16 z"
         id="circle8486"
         inkscape:connector-curvature="0" />
      <path
         style="opacity:1;fill:#afb0d0;fill-opacity:1;fill-rule:nonzero;stroke:none;stroke-width:2.81669521;stroke-linecap:round;stroke-linejoin:round;stroke-miterlimit:4;stroke-dasharray:none;stroke-opacity:1"
         d="M 80,40 A 16,16 0 0 1 64,56 16,16 0 0 1 48,40 16,16 0 0 1 64,24 16,16 0 0 1 80,40 Z"
         id="circle8488"
         inkscape:connector-curvature="0" />
      <path
         style="opacity:1;fill:#43488a;fill-opacity:1;fill-rule:nonzero;stroke:none;stroke-width:2.81669521;stroke-linecap:round;stroke-linejoin:round;stroke-miterlimit:4;stroke-dasharray:none;stroke-opacity:1"
         d="M 94.591652,109.2108 A 35.802452,35.802452 0 0 1 58.7892,145.01325 35.802452,35.802452 0 0 1 22.986748,109.2108 35.802452,35.802452 0 0 1 58.7892,73.408348 35.802452,35.802452 0 0 1 94.591652,109.2108 Z"
         id="path8460"
         inkscape:connector-curvature="0" />
      <path
         style="opacity:1;fill:#43488a;fill-opacity:1;fill-rule:nonzero;stroke:none;stroke-width:2.20060658;stroke-linecap:round;stroke-linejoin:round;stroke-miterlimit:4;stroke-dasharray:none;stroke-opacity:1"
         d="M 206.89969,67.989899 A 42.889591,42.889591 0 0 1 164.0101,110.87949 42.889591,42.889591 0 0 1 121.12051,67.989899 42.889591,42.889591 0 0 1 164.0101,25.100307 42.889591,42.889591 0 0 1 206.89969,67.989899 Z"
         id="path8462"
         inkscape:connector-curvature="0" />
      <path
         style="opacity:1;fill:#43488a;fill-opacity:1;fill-rule:nonzero;stroke:none;stroke-width:2.21113014;stroke-linecap:round;stroke-linejoin:round;stroke-miterlimit:4;stroke-dasharray:none;stroke-opacity:1"
         d="M 172.10524,181.2108 A 28.105236,28.105236 0 0 1 144,209.31604 28.105236,28.105236 0 0 1 115.89476,181.2108 28.105236,28.105236 0 0 1 144,153.10556 28.105236,28.105236 0 0 1 172.10524,181.2108 Z"
         id="circle8464"
         inkscape:connector-curvature="0" />
      <path
         style="opacity:1;fill:#7f82ae;fill-opacity:1;fill-rule:nonzero;stroke:none;stroke-width:2.81669521;stroke-linecap:round;stroke-linejoin:round;stroke-miterlimit:4;stroke-dasharray:none;stroke-opacity:1"
         d="m 240,120 a 16,16 0 0 1 -16,16 16,16 0 0 1 -16,-16 16,16 0 0 1 16,-16 16,16 0 0 1 16,16 z"
         id="circle8504"
         inkscape:connector-curvature="0" />
      <path
         style="opacity:1;fill:#afb0d0;fill-opacity:1;fill-rule:nonzero;stroke:none;stroke-width:2.81669521;stroke-linecap:round;stroke-linejoin:round;stroke-miterlimit:4;stroke-dasharray:none;stroke-opacity:1"
         d="M 48,184 A 16,16 0 0 1 32,200 16,16 0 0 1 16,184 16,16 0 0 1 32,168 16,16 0 0 1 48,184 Z"
         id="circle8512"
         inkscape:connector-curvature="0" />
    </g>
    <g
       inkscape:groupmode="layer"
       id="layer8"
       inkscape:label="opensource"
       transform="translate(0,704)"
       style="display:inline">
      <g
         id="g6432"
         transform="matrix(0.99113721,0.13284211,-0.13284211,0.99113721,70.330021,-809.23352)">
        <path
           style="opacity:1;fill:#ffffff;fill-opacity:1;fill-rule:nonzero;stroke:#afb0d0;stroke-width:5.4084506;stroke-linecap:round;stroke-linejoin:round;stroke-miterlimit:4;stroke-dasharray:none;stroke-opacity:1"
           d="m 1059.1006,334.19203 64.5773,0 c 1.5879,0 29.9085,28.66905 29.9085,30.12992 l 0,89.82467 c 0,1.46088 -1.2783,2.63696 -2.8662,2.63696 l -91.6196,0 c -1.5879,0 -2.8662,-1.17608 -2.8662,-2.63696 l 0,-117.31762 c 0,-1.46088 1.2783,-2.63697 2.8662,-2.63697 z"
           id="path6339"
           inkscape:connector-curvature="0"
           sodipodi:nodetypes="sssssssss" />
        <path
           style="fill:#ffffff;fill-opacity:1;fill-rule:evenodd;stroke:#afb0d0;stroke-width:3.60563374;stroke-linecap:butt;stroke-linejoin:round;stroke-miterlimit:4;stroke-dasharray:none;stroke-opacity:1"
           d="m 1123.6779,334.19203 0,29.86134 29.7965,0 -29.7965,-29.86134"
           id="path6341"
           inkscape:connector-curvature="0"
           sodipodi:nodetypes="cccc" />
        <g
           style="font-style:normal;font-weight:normal;font-size:71.14714813px;line-height:125%;font-family:sans-serif;text-align:center;letter-spacing:0px;word-spacing:0px;text-anchor:middle;fill:#2392ac;fill-opacity:1;stroke:none;stroke-width:1px;stroke-linecap:butt;stroke-linejoin:miter;stroke-opacity:1"
           id="text6343">
          <path
             d="m 1091.3146,388.23251 0,-7.625 -27.75,11.5625 0,8.6875 27.75,11.5625 0,-7.5625 -20.75,-8.3125 20.75,-8.3125 z"
             style="font-style:normal;font-variant:normal;font-weight:bold;font-stretch:normal;font-size:62.5px;font-family:Montserrat;-inkscape-font-specification:'Montserrat Bold';text-align:center;text-anchor:middle"
             id="path8388"
             inkscape:connector-curvature="0" />
          <path
             d="m 1100.1749,423.73251 20.1875,-57.625 -9.0625,0 -20.1875,57.625 9.0625,0 z"
             style="font-style:normal;font-variant:normal;font-weight:bold;font-stretch:normal;font-size:62.5px;font-family:Montserrat;-inkscape-font-specification:'Montserrat Bold';text-align:center;text-anchor:middle;fill:#43488a;fill-opacity:1"
             id="path8390"
             inkscape:connector-curvature="0" />
          <path
             d="m 1117.4572,404.35751 0,7.625 27.8125,-11.5625 0,-8.6875 -27.8125,-11.5625 0,7.5625 20.8125,8.3125 -20.8125,8.3125 z"
             style="font-style:normal;font-variant:normal;font-weight:bold;font-stretch:normal;font-size:62.5px;font-family:Montserrat;-inkscape-font-specification:'Montserrat Bold';text-align:center;text-anchor:middle;fill:#43488a;fill-opacity:1"
             id="path8392"
             inkscape:connector-curvature="0" />
        </g>
      </g>
      <g
         id="g6328"
         transform="matrix(0.96592583,-0.25881905,0.25881905,0.96592583,-90.88349,-371.30665)">
        <g
           id="g6324">
          <path
             style="opacity:1;fill:#ffffff;fill-opacity:1;fill-rule:nonzero;stroke:#afb0d0;stroke-width:5.4084506;stroke-linecap:round;stroke-linejoin:round;stroke-miterlimit:4;stroke-dasharray:none;stroke-opacity:1"
             d="m 1042.1902,338.70423 64.5773,0 c 1.5879,0 29.9085,28.66905 29.9085,30.12992 l 0,89.82467 c 0,1.46088 -1.2783,2.63696 -2.8662,2.63696 l -91.6196,0 c -1.5879,0 -2.8662,-1.17608 -2.8662,-2.63696 l 0,-117.31762 c 0,-1.46088 1.2783,-2.63697 2.8662,-2.63697 z"
             id="rect4646-2"
             inkscape:connector-curvature="0"
             sodipodi:nodetypes="sssssssss" />
          <path
             style="fill:#ffffff;fill-opacity:1;fill-rule:evenodd;stroke:#afb0d0;stroke-width:3.60563374;stroke-linecap:butt;stroke-linejoin:round;stroke-miterlimit:4;stroke-dasharray:none;stroke-opacity:1"
             d="m 1106.7675,338.70423 0,29.86134 29.7965,0 -29.7965,-29.86134"
             id="path4744-7"
             inkscape:connector-curvature="0"
             sodipodi:nodetypes="cccc" />
        </g>
        <g
           style="font-style:normal;font-weight:normal;font-size:71.14714813px;line-height:125%;font-family:sans-serif;letter-spacing:0px;word-spacing:0px;fill:#2392ac;fill-opacity:1;stroke:none;stroke-width:1px;stroke-linecap:butt;stroke-linejoin:miter;stroke-opacity:1"
           id="text6320">
          <path
             d="m 1085.815,388.79297 0,-8.67995 -31.5893,13.16222 0,9.88946 31.5893,13.16222 0,-8.6088 -23.6209,-9.46258 23.6209,-9.46257 z"
             style="font-style:normal;font-variant:normal;font-weight:bold;font-stretch:normal;font-family:Montserrat;-inkscape-font-specification:'Montserrat Bold';fill:#43488a;fill-opacity:1"
             id="path8395"
             inkscape:connector-curvature="0" />
          <path
             d="m 1097.8222,387.51233 c 0.071,-4.41113 2.0633,-6.4744 5.6206,-6.4744 3.2016,0 5.1226,1.42295 5.1226,4.62457 0,7.04357 -8.7511,7.61274 -8.7511,18.64055 l 9.178,0 c 0,-8.53766 10.8855,-9.8183 10.8855,-20.63267 0,-7.96848 -5.8341,-12.3796 -15.2966,-12.3796 -10.0318,0 -16.0793,5.97636 -16.2216,16.1504 l 9.4626,0.0712 z m 6.4032,22.48249 c -3.4862,0 -5.9052,2.41901 -5.9052,5.90522 0,3.55735 2.419,5.97636 5.9052,5.97636 3.4862,0 5.9764,-2.41901 5.9764,-5.97636 0,-3.48621 -2.4902,-5.90522 -5.9764,-5.90522 z"
             style="font-style:normal;font-variant:normal;font-weight:bold;font-stretch:normal;font-family:Montserrat;-inkscape-font-specification:'Montserrat Bold';fill:#43488a;fill-opacity:1"
             id="path8397"
             inkscape:connector-curvature="0" />
        </g>
      </g>
      <path
         style="opacity:1;fill:#afb0d0;fill-opacity:1;fill-rule:nonzero;stroke:none;stroke-width:15;stroke-linecap:round;stroke-linejoin:miter;stroke-miterlimit:4;stroke-dasharray:none;stroke-opacity:1"
         d="m 1008,-251.96002 160,0 0,80 -160,0 z"
         id="rect6274"
         inkscape:connector-curvature="0" />
      <path
         style="fill:#43488a;fill-opacity:1;fill-rule:evenodd;stroke:none;stroke-width:1px;stroke-linecap:butt;stroke-linejoin:miter;stroke-opacity:1"
         d="M 1008,-251.96002 959.99998,-185.29335 1008,-197.67429 Z"
         id="path6286"
         inkscape:connector-curvature="0"
         sodipodi:nodetypes="cccc" />
      <path
         style="fill:#7f82ae;fill-opacity:1;fill-rule:evenodd;stroke:none;stroke-width:1px;stroke-linecap:butt;stroke-linejoin:miter;stroke-opacity:1"
         d="m 959.99998,-185.29335 11.87128,-16.48788 36.12874,-8.83898 0,12.94592 z"
         id="path6659"
         inkscape:connector-curvature="0" />
      <path
         sodipodi:nodetypes="cccc"
         inkscape:connector-curvature="0"
         id="path6676"
         d="m 1168,-251.96002 48,66.66667 -48,-12.38094 z"
         style="fill:#43488a;fill-opacity:1;fill-rule:evenodd;stroke:none;stroke-width:1px;stroke-linecap:butt;stroke-linejoin:miter;stroke-opacity:1" />
      <path
         inkscape:connector-curvature="0"
         id="path6678"
         d="m 1216,-185.29335 -11.8713,-16.48788 -36.1287,-8.83898 0,12.94592 z"
         style="fill:#7f82ae;fill-opacity:1;fill-rule:evenodd;stroke:none;stroke-width:1px;stroke-linecap:butt;stroke-linejoin:miter;stroke-opacity:1" />
      <path
         style="display:inline;opacity:1;fill:#ffffff;fill-opacity:0.50196078;fill-rule:nonzero;stroke:none;stroke-width:15;stroke-linecap:round;stroke-linejoin:miter;stroke-miterlimit:4;stroke-dasharray:none;stroke-opacity:1"
         d="m 1072,-251.96002 32,0 0,48 -4,-3.03046 -4,3.03046 -4,-3.03046 -4,3.03046 -4,-3.03046 -4,3.03046 -4,-3.03046 -4,3.03046 z"
         id="rect6290-4-4"
         inkscape:connector-curvature="0"
         sodipodi:nodetypes="cccccccccccc" />
    </g>
    <g
       inkscape:groupmode="layer"
       id="layer7"
       inkscape:label="api"
       transform="translate(0,704)"
       style="display:inline">
      <path
         style="opacity:1;fill:#7f82ae;fill-opacity:1;fill-rule:nonzero;stroke:none;stroke-width:5;stroke-linecap:round;stroke-linejoin:round;stroke-miterlimit:4;stroke-dasharray:none;stroke-opacity:1"
         d="m 799.44336,-379.70865 c -14.94238,-0.16048 -8.57336,20.93543 -31.75586,21.00586 -26.49428,0.0805 -14.55584,-27.53521 -39.72852,-19.27148 -25.17268,8.26373 0.80889,23.43029 -20.57812,39.06836 -21.38701,15.63806 -27.96287,-13.71992 -43.4707,7.76172 -15.50782,21.48163 14.42899,18.4807 6.31836,43.70312 -8.11063,25.22243 -30.68792,5.3358 -30.60743,31.83008 0.0805,26.49428 22.53509,6.47184 30.79883,31.64453 8.26374,25.17268 -21.68885,22.35323 -6.05078,43.74024 15.63807,21.38701 22.03399,-8.00979 43.51563,7.49804 21.48163,15.50782 -4.40798,30.83274 20.81445,38.94336 25.22243,8.11064 13.11899,-19.43318 39.61328,-19.51367 26.49428,-0.0805 14.55584,27.53522 39.72852,19.27148 25.17268,-8.26373 -0.80889,-23.43029 20.57812,-39.06835 21.38701,-15.63807 27.96287,13.71991 43.4707,-7.76172 15.50782,-21.48164 -14.42899,-18.4807 -6.31836,-43.70313 8.11063,-25.22244 30.68792,-5.3358 30.60743,-31.83008 -0.0805,-26.49427 -22.53509,-6.47185 -30.79883,-31.64453 -8.26373,-25.17268 21.68884,-22.35322 6.05078,-43.74023 -15.63807,-21.38701 -22.03399,8.01172 -43.51563,-7.4961 -21.48163,-15.50783 4.40798,-30.83468 -20.81445,-38.94531 -3.1528,-1.01383 -5.72279,-1.46926 -7.85742,-1.49219 z M 768,-290.67935 a 34.678566,34.678566 0 0 1 34.67773,34.67969 A 34.678566,34.678566 0 0 1 768,-221.32193 34.678566,34.678566 0 0 1 733.32227,-255.99966 34.678566,34.678566 0 0 1 768,-290.67935 Z"
         id="path5642"
         inkscape:connector-curvature="0" />
      <path
         style="opacity:1;fill:#43488a;fill-opacity:1;fill-rule:nonzero;stroke:#b8bad0;stroke-width:15;stroke-linecap:round;stroke-linejoin:round;stroke-miterlimit:4;stroke-dasharray:none;stroke-opacity:1"
         d="M 768,-334.0834 A 78.082756,78.082756 0 0 0 689.91797,-255.99941 78.082756,78.082756 0 0 0 768,-177.91738 78.082756,78.082756 0 0 0 846.08203,-255.99941 78.082756,78.082756 0 0 0 768,-334.0834 Z m 0,43.4043 a 34.678566,34.678566 0 0 1 34.67773,34.67969 A 34.678566,34.678566 0 0 1 768,-221.32168 34.678566,34.678566 0 0 1 733.32227,-255.99941 34.678566,34.678566 0 0 1 768,-290.6791 Z"
         id="circle5650"
         inkscape:connector-curvature="0" />
    </g>
    <g
       inkscape:groupmode="layer"
       id="layer6"
       inkscape:label="events"
       transform="translate(0,704)"
       style="display:inline">
      <path
         style="opacity:1;fill:#afb0d0;fill-opacity:1;fill-rule:nonzero;stroke:none;stroke-width:4.65927935;stroke-linecap:round;stroke-linejoin:round;stroke-miterlimit:4;stroke-dasharray:none;stroke-opacity:1"
         d="m 364.22286,-384 c 3.79336,0 6.84722,4.30853 6.84722,9.66038 l 0,19.32076 c 0,5.35185 -3.05386,9.66038 -6.84722,9.66038 -3.79336,0 -6.84722,-4.30853 -6.84722,-9.66038 l 0,-19.32076 c 0,-5.35185 3.05386,-9.66038 6.84722,-9.66038 z"
         id="rect5571"
         inkscape:connector-curvature="0" />
      <path
         style="opacity:1;fill:#afb0d0;fill-opacity:1;fill-rule:nonzero;stroke:none;stroke-width:4.65927935;stroke-linecap:round;stroke-linejoin:round;stroke-miterlimit:4;stroke-dasharray:none;stroke-opacity:1"
         d="m 532.48333,-384 c 3.79336,0 6.84721,4.30853 6.84721,9.66038 l 0,19.32076 c 0,5.35185 -3.05385,9.66038 -6.84721,9.66038 -3.79336,0 -6.84722,-4.30853 -6.84722,-9.66038 l 0,-19.32076 c 0,-5.35185 3.05386,-9.66038 6.84722,-9.66038 z"
         id="rect5571-0"
         inkscape:connector-curvature="0" />
      <path
         style="opacity:1;fill:#ffffff;fill-opacity:1;fill-rule:nonzero;stroke:#afb0d0;stroke-width:5.46727896;stroke-linecap:round;stroke-linejoin:round;stroke-miterlimit:4;stroke-dasharray:none;stroke-opacity:1"
         d="m 335.1622,-357.11542 226.38175,0 0,226.38178 -226.38175,0 z"
         id="rect5565"
         inkscape:connector-curvature="0" />
      <path
         style="opacity:1;fill:#43488a;fill-opacity:1;fill-rule:nonzero;stroke:none;stroke-width:5;stroke-linecap:round;stroke-linejoin:round;stroke-miterlimit:4;stroke-dasharray:none;stroke-opacity:1"
         d="m 332.65683,-359.84906 231.39246,0 0,49.8544 -231.39246,0 z"
         id="rect5567"
         inkscape:connector-curvature="0" />
      <path
         inkscape:connector-curvature="0"
         id="path5640"
         style="font-style:normal;font-variant:normal;font-weight:600;font-stretch:normal;font-size:161.78738403px;line-height:125%;font-family:Montserrat;-inkscape-font-specification:'Montserrat Semi-Bold';letter-spacing:0px;word-spacing:0px;fill:#7f82ae;fill-opacity:1;stroke:none;stroke-width:1px;stroke-linecap:butt;stroke-linejoin:miter;stroke-opacity:1"
         d="m 486.77758,-259.50748 0,-21.35593 -72.48075,0 -0.16178,62.7735 c 7.28043,-0.48536 24.42989,-0.80893 30.57781,-0.80893 12.29584,0 19.57628,5.50077 19.57628,15.20801 0,10.35439 -7.29412,14.55682 -19.57628,13.97693 -10.69768,-0.50508 -21.96403,-4.96231 -30.51673,-10.90297 l -9.12118,20.22342 c 11.48691,8.25116 28.15101,13.75193 42.55009,13.75193 26.69491,0 44.00616,-15.20801 44.00616,-38.82897 0,-20.22342 -16.50231,-34.29893 -42.06472,-34.29893 l -11.81047,0.16179 0,-19.89985 z"
         sodipodi:nodetypes="ccccsssccsscccc" />
    </g>
    <g
       inkscape:groupmode="layer"
       id="layer5"
       inkscape:label="themes"
       transform="translate(0,704)"
       style="display:inline">
      <path
         transform="matrix(0,1,-1,0,0,0)"
         style="opacity:1;fill:#ffffff;fill-opacity:1;fill-rule:nonzero;stroke:#afb0d0;stroke-width:10.81690121;stroke-linecap:round;stroke-linejoin:round;stroke-miterlimit:4;stroke-dasharray:none;stroke-opacity:1"
         d="m -347.61956,-250.59154 183.23918,0 c 3.17582,0 5.73252,2.35217 5.73252,5.27393 l 0,234.635238 c 0,2.9217545 -2.5567,5.2739247 -5.73252,5.2739247 l -183.23918,0 c -3.17582,0 -5.73252,-2.3521702 -5.73252,-5.2739247 l 0,-234.635238 c 0,-2.92176 2.5567,-5.27393 5.73252,-5.27393 z"
         id="rect4702-9"
         inkscape:connector-curvature="0" />
      <path
         sodipodi:nodetypes="sccssss"
         inkscape:connector-curvature="0"
         id="rect5865"
         d="m 250.59154,-347.61957 0,10.50309 -245.1830949,0 0,-10.50309 c 0,-3.1758 2.3521712,-5.73252 5.2739239,-5.73252 l 234.635251,0 c 2.92175,0 5.27392,2.55672 5.27392,5.73252 z"
         style="opacity:1;fill:#43488a;fill-opacity:1;fill-rule:nonzero;stroke:#43488a;stroke-width:10.81700039;stroke-linecap:round;stroke-linejoin:miter;stroke-miterlimit:4;stroke-dasharray:none;stroke-opacity:1" />
      <path
         transform="matrix(0,1,-1,0,0,0)"
         style="opacity:1;fill:#afb0d0;fill-opacity:1;fill-rule:nonzero;stroke:none;stroke-width:2.18124485;stroke-linecap:round;stroke-linejoin:round;stroke-miterlimit:4;stroke-dasharray:none;stroke-opacity:1"
         d="m -316.53531,-216.52029 72.44959,0 c 1.662,0 3,1.338 3,3 l 0,171.040554 c 0,1.662 -1.338,3 -3,3 l -72.44959,0 c -1.662,0 -3,-1.338 -3,-3 l 0,-171.040554 c 0,-1.662 1.338,-3 3,-3 z"
         id="rect5867"
         inkscape:connector-curvature="0" />
      <path
         style="opacity:1;fill:#afb0d0;fill-opacity:1;fill-rule:nonzero;stroke:none;stroke-width:5;stroke-linecap:round;stroke-linejoin:round;stroke-miterlimit:4;stroke-dasharray:none;stroke-opacity:1"
         d="m 21.726476,-345.43872 a 5.1662683,5.1662683 0 0 1 -5.166269,5.16627 5.1662683,5.1662683 0 0 1 -5.166268,-5.16627 5.1662683,5.1662683 0 0 1 5.166268,-5.16627 5.1662683,5.1662683 0 0 1 5.166269,5.16627 z"
         id="path5545-0"
         inkscape:connector-curvature="0" />
      <path
         style="opacity:1;fill:#afb0d0;fill-opacity:1;fill-rule:nonzero;stroke:none;stroke-width:5;stroke-linecap:round;stroke-linejoin:round;stroke-miterlimit:4;stroke-dasharray:none;stroke-opacity:1"
         d="m 36.083617,-345.43872 a 5.1662683,5.1662683 0 0 1 -5.166268,5.16627 5.1662683,5.1662683 0 0 1 -5.166268,-5.16627 5.1662683,5.1662683 0 0 1 5.166268,-5.16627 5.1662683,5.1662683 0 0 1 5.166268,5.16627 z"
         id="circle5906"
         inkscape:connector-curvature="0" />
      <path
         style="opacity:1;fill:#afb0d0;fill-opacity:1;fill-rule:nonzero;stroke:none;stroke-width:5;stroke-linecap:round;stroke-linejoin:round;stroke-miterlimit:4;stroke-dasharray:none;stroke-opacity:1"
         d="m 50.440755,-345.43872 a 5.1662683,5.1662683 0 0 1 -5.166268,5.16627 5.1662683,5.1662683 0 0 1 -5.166269,-5.16627 5.1662683,5.1662683 0 0 1 5.166269,-5.16627 5.1662683,5.1662683 0 0 1 5.166268,5.16627 z"
         id="circle5908"
         inkscape:connector-curvature="0" />
      <path
         transform="matrix(0,1,-1,0,0,0)"
         style="opacity:1;fill:#d6d8ec;fill-opacity:1;fill-rule:nonzero;stroke:none;stroke-width:2.18124485;stroke-linecap:round;stroke-linejoin:round;stroke-miterlimit:4;stroke-dasharray:none;stroke-opacity:1"
         d="m -233.06798,-92.948853 21.88096,0 c 0.50195,0 0.90604,0.404098 0.90604,0.906049 l 0,51.65703 c 0,0.501951 -0.40409,0.906049 -0.90604,0.906049 l -21.88096,0 c -0.50195,0 -0.90605,-0.404098 -0.90605,-0.906049 l 0,-51.65703 c 0,-0.501951 0.4041,-0.906049 0.90605,-0.906049 z"
         id="rect5910"
         inkscape:connector-curvature="0" />
      <path
         transform="matrix(0,1,-1,0,0,0)"
         style="opacity:1;fill:#afb0d0;fill-opacity:1;fill-rule:nonzero;stroke:none;stroke-width:2.18124485;stroke-linecap:round;stroke-linejoin:round;stroke-miterlimit:4;stroke-dasharray:none;stroke-opacity:1"
         d="m -233.06798,-154.73457 21.88096,0 c 0.50195,0 0.90604,0.40409 0.90604,0.90605 l 0,51.65703 c 0,0.50195 -0.40409,0.90604 -0.90604,0.90604 l -21.88096,0 c -0.50195,0 -0.90605,-0.40409 -0.90605,-0.90604 l 0,-51.65703 c 0,-0.50196 0.4041,-0.90605 0.90605,-0.90605 z"
         id="rect5912"
         inkscape:connector-curvature="0" />
      <path
         transform="matrix(0,1,-1,0,0,0)"
         style="opacity:1;fill:#d6d8ec;fill-opacity:1;fill-rule:nonzero;stroke:none;stroke-width:2.18124485;stroke-linecap:round;stroke-linejoin:round;stroke-miterlimit:4;stroke-dasharray:none;stroke-opacity:1"
         d="m -233.06798,-216.52029 21.88096,0 c 0.50195,0 0.90604,0.40409 0.90604,0.90604 l 0,51.65703 c 0,0.50196 -0.40409,0.90605 -0.90604,0.90605 l -21.88096,0 c -0.50195,0 -0.90605,-0.40409 -0.90605,-0.90605 l 0,-51.65703 c 0,-0.50195 0.4041,-0.90604 0.90605,-0.90604 z"
         id="rect5914"
         inkscape:connector-curvature="0" />
      <path
         style="fill:none;fill-rule:evenodd;stroke:#b8bad0;stroke-width:5;stroke-linecap:butt;stroke-linejoin:miter;stroke-miterlimit:4;stroke-dasharray:none;stroke-opacity:0.50196078"
         d="m 39.479725,-198.61508 177.040565,0"
         id="path5928"
         inkscape:connector-curvature="0" />
      <path
         inkscape:connector-curvature="0"
         id="path5930"
         d="m 39.479725,-188.61508 177.040565,0"
         style="fill:none;fill-rule:evenodd;stroke:#b8bad0;stroke-width:5;stroke-linecap:butt;stroke-linejoin:miter;stroke-miterlimit:4;stroke-dasharray:none;stroke-opacity:0.50196078" />
      <path
         style="fill:none;fill-rule:evenodd;stroke:#b8bad0;stroke-width:5;stroke-linecap:butt;stroke-linejoin:miter;stroke-miterlimit:4;stroke-dasharray:none;stroke-opacity:0.50196078"
         d="m 39.479725,-178.61508 177.040565,0"
         id="path5932"
         inkscape:connector-curvature="0" />
    </g>
    <g
       inkscape:groupmode="layer"
       id="layer4"
       inkscape:label="filestorage"
       transform="translate(0,704)"
       style="display:inline">
      <path
         style="opacity:1;fill:#43488a;fill-opacity:1;fill-rule:nonzero;stroke:none;stroke-width:20;stroke-linecap:round;stroke-linejoin:round;stroke-miterlimit:4;stroke-dasharray:none;stroke-opacity:1"
         d="m 1023.8016,-609.64588 c -26.6922,-1.43047 -50.08695,17.22827 -47.83064,54.24101 -32.20752,26.44662 -9.89562,54.48174 15.92204,55.07804 5.2949,0.0792 188.7427,0 197.9295,0 31.4426,0 36.0069,-45.89805 5.7756,-58.87241 0.7443,-42.87345 -31.6335,-65.50087 -64.5176,-60.80395 -20.0257,-40.64403 -89.9186,-41.41759 -107.2789,10.35731 z"
         id="path5675"
         inkscape:connector-curvature="0"
         sodipodi:nodetypes="ccccccc" />
      <path
         style="opacity:1;fill:#ffffff;fill-opacity:1;fill-rule:nonzero;stroke:none;stroke-width:5;stroke-linecap:round;stroke-linejoin:round;stroke-miterlimit:4;stroke-dasharray:none;stroke-opacity:1"
         d="m 1046.5876,-596.81079 82.8247,0 0,22.58852 -82.8247,0 z"
         id="rect5539"
         inkscape:connector-curvature="0" />
      <path
         style="opacity:1;fill:#ffffff;fill-opacity:1;fill-rule:nonzero;stroke:none;stroke-width:5;stroke-linecap:round;stroke-linejoin:round;stroke-miterlimit:4;stroke-dasharray:none;stroke-opacity:1"
         d="m 1046.5876,-544.10419 82.8247,0 0,22.58853 -82.8247,0 z"
         id="rect5543"
         inkscape:connector-curvature="0" />
      <path
         style="opacity:1;fill:#5c6099;fill-opacity:1;fill-rule:nonzero;stroke:none;stroke-width:5;stroke-linecap:round;stroke-linejoin:round;stroke-miterlimit:4;stroke-dasharray:none;stroke-opacity:1"
         d="m 1124.5237,-581.75177 a 2.640887,2.640887 0 0 1 -2.6409,2.64089 2.640887,2.640887 0 0 1 -2.6409,-2.64089 2.640887,2.640887 0 0 1 2.6409,-2.64089 2.640887,2.640887 0 0 1 2.6409,2.64089 z"
         id="path5545"
         inkscape:connector-curvature="0" />
      <path
         style="opacity:1;fill:#5c6099;fill-opacity:1;fill-rule:nonzero;stroke:none;stroke-width:5;stroke-linecap:round;stroke-linejoin:round;stroke-miterlimit:4;stroke-dasharray:none;stroke-opacity:1"
         d="m 1124.5237,-529.04517 a 2.640887,2.640887 0 0 1 -2.6409,2.64089 2.640887,2.640887 0 0 1 -2.6409,-2.64089 2.640887,2.640887 0 0 1 2.6409,-2.64088 2.640887,2.640887 0 0 1 2.6409,2.64088 z"
         id="circle5551"
         inkscape:connector-curvature="0" />
      <path
         style="opacity:1;fill:#ffffff;fill-opacity:1;fill-rule:nonzero;stroke:none;stroke-width:5;stroke-linecap:round;stroke-linejoin:round;stroke-miterlimit:4;stroke-dasharray:none;stroke-opacity:1"
         d="m 1046.5876,-570.45746 82.8247,0 0,22.58853 -82.8247,0 z"
         id="rect5555"
         inkscape:connector-curvature="0" />
      <path
         style="opacity:1;fill:#5c6099;fill-opacity:1;fill-rule:nonzero;stroke:none;stroke-width:5;stroke-linecap:round;stroke-linejoin:round;stroke-miterlimit:4;stroke-dasharray:none;stroke-opacity:1"
         d="m 1124.5237,-555.39844 a 2.640887,2.640887 0 0 1 -2.6409,2.64089 2.640887,2.640887 0 0 1 -2.6409,-2.64089 2.640887,2.640887 0 0 1 2.6409,-2.64088 2.640887,2.640887 0 0 1 2.6409,2.64088 z"
         id="circle5557"
         inkscape:connector-curvature="0" />
    </g>
    <g
       inkscape:groupmode="layer"
       id="layer3"
       inkscape:label="social"
       transform="translate(0,704)"
       style="display:inline">
      <path
         style="display:inline;opacity:1;fill:#43488a;fill-opacity:1;fill-rule:nonzero;stroke:none;stroke-width:6;stroke-linecap:round;stroke-linejoin:round;stroke-miterlimit:4;stroke-dasharray:none;stroke-opacity:1"
         d="m 812.75394,-702.93332 a 66.745212,66.745212 0 0 0 -66.74421,66.74421 66.745212,66.745212 0 0 0 26.0335,52.79044 c -15.59001,16.74807 -42.30077,55.66944 -31.56843,118.67037 l 144.08727,0.72831 c 0,0 17.07894,-70.63373 -31.16056,-119.30161 a 66.745212,66.745212 0 0 0 26.09662,-52.88751 66.745212,66.745212 0 0 0 -66.74419,-66.74421 z"
         id="path4895"
         inkscape:connector-curvature="0" />
      <path
         inkscape:connector-curvature="0"
         id="path4706-9-2-5"
         d="m 723.31776,-685.86665 a 66.745212,66.745212 0 0 0 -66.74421,66.74421 66.745212,66.745212 0 0 0 26.0335,52.79043 c -15.59001,16.74808 -42.30078,55.66944 -31.56843,118.67037 l 144.08727,0.72831 c 0,0 17.07894,-70.63373 -31.16057,-119.3016 a 66.745212,66.745212 0 0 0 26.09663,-52.88751 66.745212,66.745212 0 0 0 -66.74419,-66.74421 z"
         style="display:inline;opacity:1;fill:#afb0d0;fill-opacity:1;fill-rule:nonzero;stroke:none;stroke-width:6;stroke-linecap:round;stroke-linejoin:round;stroke-miterlimit:4;stroke-dasharray:none;stroke-opacity:1" />
    </g>
    <g
       inkscape:groupmode="layer"
       id="layer2"
       inkscape:label="toolkit"
       transform="translate(0,704)"
       style="display:inline">
      <path
         style="opacity:1;fill:#7f82ae;fill-opacity:1;fill-rule:nonzero;stroke:none;stroke-width:6;stroke-linecap:round;stroke-linejoin:miter;stroke-miterlimit:4;stroke-dasharray:none;stroke-opacity:1"
         d="m 402,-644.93333 c -5.54001,0 -10,4.46 -10,10 l 0,22 c 8.61281,20.98422 111.39669,19.97759 112,0 l 0,-22 c 0,-5.54 -4.46,-10 -10,-10 z m 10,13.24219 72,0 c 3.324,0 6,2.676 6,6 l 0,16 -84,0 0,-16 c 0,-3.324 2.67599,-6 6,-6 z"
         id="rect5975"
         inkscape:connector-curvature="0"
         sodipodi:nodetypes="ssccssssssccss" />
      <path
         style="opacity:1;fill:#43488a;fill-opacity:1;fill-rule:nonzero;stroke:none;stroke-width:5;stroke-linecap:round;stroke-linejoin:round;stroke-miterlimit:4;stroke-dasharray:none;stroke-opacity:1"
         d="m 325,-612.93329 246,0 c 2.77,0 5,2.23 5,5 l 0,97.99999 c 0,2.77 -2.23,5 -5,5 l -246,0 c -2.77,0 -5,-2.23 -5,-5 l 0,-97.99999 c 0,-2.77 2.23,-5 5,-5 z"
         id="rect4887"
         inkscape:connector-curvature="0" />
      <path
         style="fill:none;fill-rule:evenodd;stroke:#d5d6e5;stroke-width:6;stroke-linecap:butt;stroke-linejoin:miter;stroke-miterlimit:4;stroke-dasharray:none;stroke-opacity:1"
         d="m 319.99999,-569.79047 256,0"
         id="path5948"
         inkscape:connector-curvature="0" />
      <path
         style="opacity:1;fill:#add7e3;fill-opacity:1;fill-rule:nonzero;stroke:none;stroke-width:6;stroke-linecap:round;stroke-linejoin:miter;stroke-miterlimit:4;stroke-dasharray:none;stroke-opacity:1"
         d="m 440.42856,-585.86011 17.57143,0 c 1.662,0 3,1.338 3,3 l 0,32.13938 c 0,1.662 -1.338,3 -3,3 l -17.57143,0 c -1.662,0 -3,-1.338 -3,-3 l 0,-32.13938 c 0,-1.662 1.338,-3 3,-3 z"
         id="rect5950"
         inkscape:connector-curvature="0" />
      <path
         style="opacity:1;fill:#d5d6e5;fill-opacity:1;fill-rule:nonzero;stroke:none;stroke-width:6;stroke-linecap:round;stroke-linejoin:miter;stroke-miterlimit:4;stroke-dasharray:none;stroke-opacity:1"
         d="m 440.42856,-585.86011 17.57143,0 c 1.662,0 3,1.338 3,3 l 0,32.13938 c 0,1.662 -1.338,3 -3,3 l -17.57143,0 c -1.662,0 -3,-1.338 -3,-3 l 0,-32.13938 c 0,-1.662 1.338,-3 3,-3 z"
         id="rect5973"
         inkscape:connector-curvature="0" />
    </g>
    <g
       inkscape:label="plugins"
       inkscape:groupmode="layer"
       id="layer1"
       transform="translate(0,163.63784)"
       style="display:inline">
      <path
         style="display:inline;opacity:1;fill:#afb0d0;fill-opacity:1;fill-rule:nonzero;stroke:none;stroke-width:15;stroke-linecap:round;stroke-linejoin:miter;stroke-miterlimit:4;stroke-dasharray:none;stroke-opacity:1"
         d="m 156.84126,-71.026733 94.15873,0 c 2.77,0 5,2.23 5,5 l 0,10.831745 c 0,2.77 -2.23,5 -5,5 l -94.15873,0 c -2.77,0 -5,-2.23 -5,-5 l 0,-10.831745 c 0,-2.77 2.23,-5 5,-5 z"
         id="rect6011"
         inkscape:connector-curvature="0" />
      <path
         style="display:inline;opacity:1;fill:#afb0d0;fill-opacity:1;fill-rule:nonzero;stroke:none;stroke-width:15;stroke-linecap:round;stroke-linejoin:miter;stroke-miterlimit:4;stroke-dasharray:none;stroke-opacity:1"
         d="m 156.84126,-18.947388 94.15873,0 c 2.77,0 5,2.23 5,5 l 0,10.8317455 c 0,2.76999995 -2.23,5 -5,5 l -94.15873,0 c -2.77,0 -5,-2.23000005 -5,-5 l 0,-10.8317455 c 0,-2.77 2.23,-5 5,-5 z"
         id="rect6015"
         inkscape:connector-curvature="0" />
      <path
         style="display:inline;opacity:1;fill:#43488a;fill-opacity:1;fill-rule:nonzero;stroke:none;stroke-width:15;stroke-linecap:round;stroke-linejoin:miter;stroke-miterlimit:4;stroke-dasharray:none;stroke-opacity:1"
         d="m 0,-47.591003 99.761902,0 0,26.039682 -99.761902,0 z"
         id="rect6019"
         inkscape:connector-curvature="0" />
      <path
         style="display:inline;opacity:1;fill:#43488a;fill-opacity:1;fill-rule:nonzero;stroke:none;stroke-width:15;stroke-linecap:round;stroke-linejoin:miter;stroke-miterlimit:4;stroke-dasharray:none;stroke-opacity:1"
         d="m 204.25727,28.547881 c -76.34913,0 -113.097752,0 -113.097752,-63.11905 0,-63.119048 36.799312,-63.119048 113.097752,-63.119048 z"
         id="path6008"
         inkscape:connector-curvature="0"
         sodipodi:nodetypes="czcc" />
      <path
         style="display:inline;opacity:1;fill:#7f82ae;fill-opacity:1;fill-rule:nonzero;stroke:none;stroke-width:15;stroke-linecap:round;stroke-linejoin:miter;stroke-miterlimit:4;stroke-dasharray:none;stroke-opacity:1"
         d="m 81.083015,-52.872681 7.05621,0 c 3.114953,0 5.622658,2.507705 5.622658,5.622658 l 0,25.357735 c 0,3.114952 -2.507705,5.622658 -5.622658,5.622658 l -7.05621,0 c -3.114952,0 -5.622657,-2.507706 -5.622657,-5.622658 l 0,-25.357735 c 0,-3.114953 2.507705,-5.622658 5.622657,-5.622658 z"
         id="rect6017"
         inkscape:connector-curvature="0" />
    </g>
  </g>
</svg>
